*** Life<ConwayCell> 10x5 ***

Generation = 0, Population = 19.
**...
.*...
...*.
..***
..**.
.....
*.*..
*..*.
.*.*.
****.

*** Life<ConwayCell> 20x3 ***

Generation = 0, Population = 21.
..*
*..
.*.
.*.
**.
***
..*
..*
.*.
..*
...
...
.*.
.**
...
*..
*.*
..*
*..
...

*** Life<ConwayCell> 12x2 ***

Generation = 0, Population = 17.
**
.*
*.
**
**
*.
**
..
.*
**
*.
**

*** Life<ConwayCell> 16x20 ***

Generation = 0, Population = 15.
....................
..........*.........
........*........*..
.....*..............
....................
....................
....................
......*............*
.........*..........
....................
....................
*...................
.................*.*
....*...............
............*...*...
.....*...*..........

*** Life<ConwayCell> 8x2 ***

Generation = 0, Population = 13.
**
**
**
*.
**
*.
**
*.

*** Life<ConwayCell> 1x15 ***

Generation = 0, Population = 10.
*.*.*.*.*.*****

Generation = 3, Population = 0.
...............

*** Life<ConwayCell> 19x4 ***

Generation = 0, Population = 11.
*...
....
....
....
....
...*
....
...*
....
..*.
..*.
....
...*
....
.*..
....
..*.
**..
.*..

*** Life<ConwayCell> 4x11 ***

Generation = 0, Population = 4.
...........
...........
*.*........
..*.......*

Generation = 3, Population = 0.
...........
...........
...........
...........

*** Life<ConwayCell> 17x14 ***

Generation = 0, Population = 9.
..............
..............
..............
......*....*..
......*.......
..............
..............
..............
.......*......
..............
...*..........
..**..........
..............
..............
..............
.............*
.............*

Generation = 13, Population = 4.
..............
..............
..............
..............
..............
..............
..............
..............
..............
..............
..**..........
..**..........
..............
..............
..............
..............
..............

*** Life<ConwayCell> 7x3 ***

Generation = 0, Population = 6.
*..
..*
...
...
...
.**
.**

*** Life<ConwayCell> 9x19 ***

Generation = 0, Population = 27.
....*.....*....****
.......**.*.*......
.........*.....*...
.........*.........
*.............*....
......*....*.*.....
...*...............
........*.....***..
*..**............*.

Generation = 5, Population = 12.
................**.
...........**...**.
.........*..*......
.........***.......
..........*........
...................
...................
...................
...................

Generation = 10, Population = 22.
................**.
..........***...**.
.........***.*.....
........*...**.....
........*.***......
.........***.......
..........*........
...................
...................

Generation = 15, Population = 29.
..........*.**.*.*.
.........*****...*.
.......**..........
.......**..........
.......**...*..*...
.........**..**....
..........***......
..........***......
...................

Generation = 20, Population = 27.
.............***...
..........*..***...
.....**............
.....***..***......
.......*..**.......
........**.**......
........**.........
..........***......
...................

*** Life<ConwayCell> 15x2 ***

Generation = 0, Population = 17.
*.
**
..
*.
**
..
**
**
**
.*
..
.*
*.
*.
*.

Generation = 2, Population = 8.
**
..
..
..
**
..
..
..
..
..
..
..
**
**
..

Generation = 4, Population = 4.
..
..
..
..
..
..
..
..
..
..
..
..
**
**
..

Generation = 6, Population = 4.
..
..
..
..
..
..
..
..
..
..
..
..
**
**
..

Generation = 8, Population = 4.
..
..
..
..
..
..
..
..
..
..
..
..
**
**
..

Generation = 10, Population = 4.
..
..
..
..
..
..
..
..
..
..
..
..
**
**
..

Generation = 12, Population = 4.
..
..
..
..
..
..
..
..
..
..
..
..
**
**
..

Generation = 14, Population = 4.
..
..
..
..
..
..
..
..
..
..
..
..
**
**
..

Generation = 16, Population = 4.
..
..
..
..
..
..
..
..
..
..
..
..
**
**
..

Generation = 18, Population = 4.
..
..
..
..
..
..
..
..
..
..
..
..
**
**
..

Generation = 20, Population = 4.
..
..
..
..
..
..
..
..
..
..
..
..
**
**
..

Generation = 22, Population = 4.
..
..
..
..
..
..
..
..
..
..
..
..
**
**
..

*** Life<ConwayCell> 4x15 ***

Generation = 0, Population = 13.
..*.*..**.*....
.....*....*....
....**.........
*....**......*.

Generation = 6, Population = 0.
...............
...............
...............
...............

*** Life<ConwayCell> 4x5 ***

Generation = 0, Population = 6.
*....
..**.
.....
**.*.

Generation = 8, Population = 0.
.....
.....
.....
.....

*** Life<ConwayCell> 5x7 ***

Generation = 0, Population = 11.
.**...*
.*..*..
..*..*.
...*..*
..*..*.

Generation = 13, Population = 4.
.......
.......
**.....
**.....
.......

*** Life<ConwayCell> 20x10 ***

Generation = 0, Population = 8.
..........
......*..*
..........
..........
..........
..........
..........
..........
..........
..*.......
..........
.*........
.......*..
...*...*..
..........
..........
..........
...*......
..........
..........

Generation = 7, Population = 0.
..........
..........
..........
..........
..........
..........
..........
..........
..........
..........
..........
..........
..........
..........
..........
..........
..........
..........
..........
..........

Generation = 14, Population = 0.
..........
..........
..........
..........
..........
..........
..........
..........
..........
..........
..........
..........
..........
..........
..........
..........
..........
..........
..........
..........

Generation = 21, Population = 0.
..........
..........
..........
..........
..........
..........
..........
..........
..........
..........
..........
..........
..........
..........
..........
..........
..........
..........
..........
..........

Generation = 28, Population = 0.
..........
..........
..........
..........
..........
..........
..........
..........
..........
..........
..........
..........
..........
..........
..........
..........
..........
..........
..........
..........

*** Life<ConwayCell> 12x2 ***

Generation = 0, Population = 9.
.*
**
*.
*.
*.
.*
..
.*
..
..
..
.*

Generation = 8, Population = 0.
..
..
..
..
..
..
..
..
..
..
..
..

*** Life<ConwayCell> 2x9 ***

Generation = 0, Population = 15.
.********
.*******.

*** Life<ConwayCell> 15x17 ***

Generation = 0, Population = 28.
.........*.......
.....**..........
.................
................*
..........*......
...........*.....
.*........*.*....
*.....*..........
.*....*....*.....
....*.........***
.*..*..*........*
.............**.*
.................
....*...........*
..*..............

Generation = 1, Population = 15.
.................
.................
.................
.................
.................
..........**.....
...........*.....
**.........*.....
.....*.........*.
.....*.........**
.............*..*
...............*.
...............*.
.................
.................

Generation = 2, Population = 14.
.................
.................
.................
.................
.................
..........**.....
...........**....
.................
...............**
..............***
..............*.*
..............***
.................
.................
.................

Generation = 3, Population = 13.
.................
.................
.................
.................
.................
..........***....
..........***....
.................
..............*.*
..............*..
.............*...
..............*.*
...............*.
.................
.................

Generation = 4, Population = 16.
.................
.................
.................
.................
...........*.....
..........*.*....
..........*.*....
...........*.....
...............*.
.............***.
.............***.
..............**.
...............*.
.................
.................

Generation = 5, Population = 14.
.................
.................
.................
.................
...........*.....
..........*.*....
..........*.*....
...........*.....
...............*.
.............*..*
................*
.............*..*
..............**.
.................
.................

Generation = 6, Population = 14.
.................
.................
.................
.................
...........*.....
..........*.*....
..........*.*....
...........*.....
.................
...............**
...............**
..............*.*
..............**.
.................
.................

*** Life<ConwayCell> 10x19 ***

Generation = 0, Population = 18.
.*..........*.*.*..
.............*.....
...................
.....**............
...................
..**........*.*....
..................*
..........*..*.*..*
*..................
.............*.....

Generation = 4, Population = 0.
...................
...................
...................
...................
...................
...................
...................
...................
...................
...................

*** Life<ConwayCell> 18x7 ***

Generation = 0, Population = 2.
.......
.......
.......
.......
.......
.......
.......
.......
.......
.......
.......
.....*.
....*..
.......
.......
.......
.......
.......

Generation = 12, Population = 0.
.......
.......
.......
.......
.......
.......
.......
.......
.......
.......
.......
.......
.......
.......
.......
.......
.......
.......

*** Life<ConwayCell> 19x10 ***

Generation = 0, Population = 25.
.....*..*.
.....*....
*..*......
...*......
.........*
........*.
.......*..
*.....*...
..*.....*.
.....*....
..........
.......*..
*.*.......
.*..**....
..........
.....*....
........*.
...*....*.
.....*....

*** Life<ConwayCell> 12x6 ***

Generation = 0, Population = 12.
*.**..
....**
...*..
......
*....*
......
.*.*..
......
......
....*.
......
..*...

Generation = 8, Population = 4.
....**
....**
......
......
......
......
......
......
......
......
......
......

Generation = 16, Population = 4.
....**
....**
......
......
......
......
......
......
......
......
......
......

Generation = 24, Population = 4.
....**
....**
......
......
......
......
......
......
......
......
......
......

*** Life<ConwayCell> 17x20 ***

Generation = 0, Population = 27.
*...................
....................
*........*...*......
.............*......
...........*........
.................**.
....*..........*..*.
...........*...*....
.*............*.....
.............*......
.*..................
.........*.......*..
....................
.*............*.....
....................
**.....**...........
*...........*.......

*** Life<ConwayCell> 11x7 ***

Generation = 0, Population = 2.
.......
.......
.......
.......
.......
.......
.......
....*..
.......
.......
.....*.

Generation = 1, Population = 0.
.......
.......
.......
.......
.......
.......
.......
.......
.......
.......
.......

Generation = 2, Population = 0.
.......
.......
.......
.......
.......
.......
.......
.......
.......
.......
.......

Generation = 3, Population = 0.
.......
.......
.......
.......
.......
.......
.......
.......
.......
.......
.......

Generation = 4, Population = 0.
.......
.......
.......
.......
.......
.......
.......
.......
.......
.......
.......

Generation = 5, Population = 0.
.......
.......
.......
.......
.......
.......
.......
.......
.......
.......
.......

Generation = 6, Population = 0.
.......
.......
.......
.......
.......
.......
.......
.......
.......
.......
.......

Generation = 7, Population = 0.
.......
.......
.......
.......
.......
.......
.......
.......
.......
.......
.......

Generation = 8, Population = 0.
.......
.......
.......
.......
.......
.......
.......
.......
.......
.......
.......

Generation = 9, Population = 0.
.......
.......
.......
.......
.......
.......
.......
.......
.......
.......
.......

Generation = 10, Population = 0.
.......
.......
.......
.......
.......
.......
.......
.......
.......
.......
.......

Generation = 11, Population = 0.
.......
.......
.......
.......
.......
.......
.......
.......
.......
.......
.......

Generation = 12, Population = 0.
.......
.......
.......
.......
.......
.......
.......
.......
.......
.......
.......

Generation = 13, Population = 0.
.......
.......
.......
.......
.......
.......
.......
.......
.......
.......
.......

Generation = 14, Population = 0.
.......
.......
.......
.......
.......
.......
.......
.......
.......
.......
.......

Generation = 15, Population = 0.
.......
.......
.......
.......
.......
.......
.......
.......
.......
.......
.......

Generation = 16, Population = 0.
.......
.......
.......
.......
.......
.......
.......
.......
.......
.......
.......

Generation = 17, Population = 0.
.......
.......
.......
.......
.......
.......
.......
.......
.......
.......
.......

Generation = 18, Population = 0.
.......
.......
.......
.......
.......
.......
.......
.......
.......
.......
.......

*** Life<ConwayCell> 15x13 ***

Generation = 0, Population = 25.
...*.....*.*.
.........*...
*..*....*....
........*....
......*......
.....*.......
.........*...
...........*.
...*...*.....
...*.........
.*...........
*.*....*.*..*
.*.......*..*
.......*.....
.............

Generation = 3, Population = 12.
.........*...
..........**.
.......**....
.............
.............
.............
.............
.............
.............
.***.........
...*.........
..**.........
.*...........
.............
.............

Generation = 6, Population = 16.
.........**..
.........**..
.........**..
.............
.............
.............
.............
.............
.*.*.........
.*..*........
*...*........
.*..*........
.*.*.........
.............
.............

Generation = 9, Population = 9.
.........**..
........*..*.
.........**..
.............
.............
.............
.............
.............
.............
.............
....***......
.............
.............
.............
.............

Generation = 12, Population = 9.
.........**..
........*..*.
.........**..
.............
.............
.............
.............
.............
.............
.....*.......
.....*.......
.....*.......
.............
.............
.............
