26

10 5
29
6 2
9 1
8 3
9 0
9 3
9 3
7 3
4 2
6 0
3 4
2 3
9 3
3 2
1 1
9 3
7 0
8 1
3 4
6 0
3 3
9 2
4 2
0 0
0 1
7 0
0 0
2 3
4 3
6 0
2 12

20 3
27
3 1
16 2
16 0
12 1
2 1
2 1
18 0
7 2
13 2
5 1
8 1
15 0
4 1
0 2
1 0
0 2
5 2
6 2
5 0
4 0
9 2
13 1
12 1
4 0
17 2
12 1
16 2
4 10

12 2
21
0 1
3 0
1 1
11 0
8 1
9 0
4 1
6 0
11 1
4 1
3 1
2 0
5 0
4 0
6 1
9 1
4 0
6 1
0 0
10 0
8 1
7 15

16 20
15
15 5
3 5
12 17
7 19
14 12
2 8
14 16
2 17
8 9
12 19
11 0
15 9
1 10
7 6
13 4
6 15

8 2
23
4 0
6 0
1 1
2 1
6 0
3 0
1 1
1 1
6 1
6 0
7 0
5 0
2 1
6 1
4 0
2 0
0 1
0 0
1 0
5 0
1 0
4 1
2 1
3 4

1 15
12
0 0
0 10
0 11
0 10
0 12
0 4
0 8
0 6
0 14
0 6
0 2
0 13
3 3

19 4
11
12 3
17 1
17 0
9 2
0 0
5 3
10 2
7 3
16 2
14 1
18 1
3 6

4 11
4
3 10
2 2
2 0
3 2
3 3

17 14
9
3 11
11 3
15 13
11 2
3 6
16 13
4 6
10 3
8 7
25 13

7 3
6
5 1
6 2
1 2
5 2
6 1
0 0
3 7

9 19
29
0 18
7 15
4 0
1 10
1 12
5 13
2 9
8 17
8 17
7 14
5 11
3 9
0 15
4 14
5 6
0 16
8 4
7 15
8 0
0 10
1 8
0 17
7 16
6 3
8 3
1 7
2 15
7 8
0 4
21 5

15 2
26
7 1
1 1
12 0
6 1
9 1
1 0
8 0
6 0
3 0
8 1
6 0
4 1
9 1
7 0
8 0
4 0
12 0
11 1
11 1
4 0
14 0
3 0
13 0
1 1
9 1
0 0
22 2

4 15
14
0 4
0 8
2 5
3 13
0 2
3 5
3 0
3 6
0 10
2 4
0 4
1 10
0 7
1 5
7 6

4 5
6
0 0
3 0
1 3
3 1
3 3
1 2
14 8

5 7
13
0 1
4 5
1 4
0 2
3 3
2 2
2 5
4 2
4 2
1 1
0 6
0 6
3 6
15 13

20 10
8
13 3
1 6
11 1
17 3
1 9
9 2
13 7
12 7
28 7

12 2
11
1 1
5 1
2 0
4 0
1 0
3 0
0 1
2 0
11 1
7 1
7 1
15 8

2 9
30
1 3
1 3
1 3
1 6
1 1
0 3
1 6
0 7
0 6
1 2
1 3
0 8
0 1
0 2
0 6
1 6
0 4
1 2
0 5
0 7
0 7
0 2
1 7
1 1
1 1
0 2
1 7
1 4
1 1
1 5
2 14

15 17
30
1 6
5 11
8 6
1 5
4 10
3 16
8 11
10 4
6 10
8 11
9 15
7 6
10 1
6 12
8 1
9 4
7 0
10 16
9 14
11 14
0 9
13 4
11 16
10 7
11 13
6 1
1 5
9 16
13 16
14 2
6 1

10 19
20
7 18
8 0
7 18
3 5
0 14
7 10
5 12
3 6
7 13
5 14
5 3
9 13
0 1
7 15
7 15
1 13
5 2
0 16
6 18
0 12
7 4

18 7
2
12 4
11 5
21 12

19 10
29
17 3
6 7
18 5
7 6
2 0
17 8
8 8
1 5
2 3
4 9
13 4
12 0
13 1
2 0
7 0
0 5
12 2
11 7
8 2
0 8
15 5
16 8
4 9
12 2
12 0
5 8
3 3
13 5
9 5
7 14

12 6
13
4 0
1 5
9 4
0 0
11 2
2 3
6 1
0 3
1 4
2 3
4 5
6 3
0 2
24 8

17 20
27
15 7
2 13
6 18
8 14
7 15
11 17
6 4
7 11
11 9
2 0
16 12
6 15
15 8
15 1
15 0
0 0
10 1
5 17
2 9
16 0
9 13
8 1
3 13
4 11
5 18
13 14
13 1
4 11

11 7
3
7 4
7 4
10 5
18 1

15 13
27
11 0
12 12
2 8
9 3
8 3
7 11
11 2
4 6
10 1
0 3
11 7
2 3
12 9
11 12
5 5
11 9
0 9
8 7
0 3
12 1
3 8
1 9
13 7
2 0
0 11
10 1
6 9
12 3
