29

16 2
19
5 0
14 0
9 0
6 1
14 0
8 0
4 0
10 1
15 1
0 0
10 1
13 0
11 1
3 1
6 0
1 1
11 0
5 0
2 1
34 2

5 11
19
0 4
4 8
4 8
0 1
4 6
3 0
4 10
0 10
1 6
3 10
3 3
4 4
0 7
3 4
4 3
4 7
4 5
4 10
3 9
25 2

5 17
8
2 14
3 13
1 3
4 15
1 4
1 16
2 12
2 9
38 2

4 3
6
0 0
0 1
3 1
1 1
3 2
1 0
6 1

20 12
16
0 2
9 0
0 4
19 11
14 4
12 7
13 7
6 0
8 0
7 4
12 4
17 4
15 3
13 4
18 8
2 7
39 2

8 6
5
2 2
5 1
7 1
6 1
6 1
13 1

7 11
17
2 8
4 9
2 4
2 6
5 10
3 9
0 1
4 8
4 10
6 0
0 1
2 3
0 7
4 0
1 6
2 3
1 4
1 1

19 18
25
14 8
4 2
14 6
10 11
12 4
6 11
15 10
6 1
4 12
8 5
11 13
6 3
12 14
14 0
16 13
5 8
6 6
8 8
4 5
10 17
12 8
18 9
13 1
14 0
12 0
21 1

12 18
7
3 1
7 5
0 6
8 5
6 3
2 2
1 7
6 1

11 16
6
3 13
0 4
3 4
1 10
0 13
0 1
7 1

6 17
12
3 12
2 15
5 7
5 12
3 16
0 5
2 1
0 14
2 6
1 5
0 13
3 5
19 1

12 7
20
3 1
4 5
3 3
7 6
3 0
9 6
3 1
4 4
1 3
1 2
3 2
11 3
0 3
2 0
0 1
10 0
11 2
8 5
9 2
4 3
40 2

11 20
1
1 6
50 3

18 9
2
8 6
7 3
25 2

9 16
13
5 11
7 15
3 7
8 13
1 7
5 10
6 7
6 1
6 5
4 13
2 9
6 4
0 9
34 2

11 10
17
6 4
4 4
8 7
1 8
7 8
9 7
4 5
7 4
4 7
6 3
3 4
10 3
4 3
8 3
10 0
3 2
9 6
27 2

14 7
20
6 4
10 3
11 3
11 4
9 6
3 6
11 5
1 0
11 6
4 0
7 3
11 5
10 5
4 1
5 0
12 5
12 0
0 1
2 0
7 6
3 1

7 14
17
2 12
0 2
5 1
0 9
4 9
1 0
3 13
0 11
3 3
6 12
1 5
3 4
6 13
5 6
2 12
6 10
0 0
18 1

13 4
22
3 0
6 0
8 2
11 2
5 3
11 3
3 2
11 2
11 0
7 0
11 2
4 2
4 1
11 0
0 1
4 0
1 1
12 0
7 2
4 0
11 3
9 2
48 2

19 2
2
10 0
2 0
50 3

20 2
21
5 0
3 1
8 0
3 0
6 0
11 1
4 1
1 0
19 1
11 1
8 0
3 0
7 1
8 1
10 1
3 0
15 1
19 1
18 0
7 0
8 1
47 2

2 10
10
1 2
0 6
1 1
1 5
0 2
1 1
1 4
1 1
1 4
0 9
32 2

18 19
3
12 18
5 10
4 18
34 2

15 4
14
2 2
12 3
1 0
3 3
1 3
7 2
12 0
5 2
8 3
9 3
2 2
8 3
3 1
14 2
4 1

12 14
19
1 10
9 5
0 2
7 12
8 3
9 5
8 9
7 11
9 10
11 12
4 13
4 5
3 1
10 12
4 4
10 8
7 4
7 10
3 10
11 1

2 16
6
1 9
0 8
0 9
0 9
0 6
1 6
13 1

9 17
21
7 2
4 0
0 5
6 1
8 13
5 10
0 8
7 12
6 8
1 16
7 14
8 0
4 9
5 0
0 3
5 6
5 4
5 1
5 8
1 8
8 9
3 1

14 10
13
13 3
12 0
2 7
2 2
7 8
10 3
12 0
1 2
0 2
5 3
0 4
7 3
2 2
3 1

18 20
7
7 5
15 13
17 19
3 5
5 0
2 9
3 17
42 2
