*** Life<ConwayCell> 14x7 ***

Generation = 0, Population = 20.
*......
.......
...*...
*.*....
*..*.*.
**...*.
.*....*
...*...
.***...
.......
.......
...**..
*......
..*....

Generation = 1, Population = 22.
.......
.......
.......
.****..
*.*.*..
***.***
***....
.*.*...
..**...
..*....
.......
.......
...*...
.......

Generation = 2, Population = 16.
.......
.......
..**...
.**.*..
*......
....**.
....**.
*..*...
.*.*...
..**...
.......
.......
.......
.......

Generation = 3, Population = 20.
.......
.......
.***...
.**....
.*.***.
....**.
...*.*.
..**...
.*.**..
..**...
.......
.......
.......
.......

Generation = 4, Population = 17.
.......
..*....
.*.*...
*......
.*.*.*.
..*...*
..**.*.
.......
.*..*..
..***..
.......
.......
.......
.......

Generation = 5, Population = 22.
.......
..*....
.**....
**..*..
.**....
.*...**
..**...
..***..
..*.*..
..***..
...*...
.......
.......
.......

Generation = 6, Population = 22.
.......
.**....
*.**...
*..*...
..*..*.
.*.*...
.*...*.
.*..*..
.*...*.
..*.*..
..***..
.......
.......
.......

Generation = 7, Population = 33.
.......
.***...
*..*...
...**..
.****..
.*..*..
**..*..
***.**.
.*****.
.**.**.
..*.*..
...*...
.......
.......

Generation = 8, Population = 17.
..*....
.***...
.*.....
.*.....
.*...*.
....**.
....*..
.......
......*
.......
.**.**.
...*...
.......
.......

Generation = 9, Population = 23.
.***...
.*.*...
**.....
***....
....**.
....**.
....**.
.......
.......
.....*.
..***..
..***..
.......
.......

*** Life<ConwayCell> 12x15 ***

Generation = 0, Population = 4.
...............
...............
...............
...............
...............
......*........
...............
...............
............*..
....*..........
.............*.
...............

Generation = 1, Population = 0.
...............
...............
...............
...............
...............
...............
...............
...............
...............
...............
...............
...............

Generation = 2, Population = 0.
...............
...............
...............
...............
...............
...............
...............
...............
...............
...............
...............
...............

Generation = 3, Population = 0.
...............
...............
...............
...............
...............
...............
...............
...............
...............
...............
...............
...............

Generation = 4, Population = 0.
...............
...............
...............
...............
...............
...............
...............
...............
...............
...............
...............
...............

Generation = 5, Population = 0.
...............
...............
...............
...............
...............
...............
...............
...............
...............
...............
...............
...............

Generation = 6, Population = 0.
...............
...............
...............
...............
...............
...............
...............
...............
...............
...............
...............
...............

*** Life<ConwayCell> 4x17 ***

Generation = 0, Population = 22.
*.*.**.**..*.....
*.......*..*..**.
.*....**..*...*..
*.....**..*...*..

Generation = 1, Population = 22.
.*.....**........
*....*..****..**.
**....*.****.**..
......**.........

Generation = 2, Population = 24.
.......**.*......
*.....*....*****.
**...**....*****.
......*****......

Generation = 3, Population = 27.
.......*...****..
**...**...*....*.
**...*..**.....*.
.....**********..

Generation = 4, Population = 31.
......*....****..
**...*********.*.
**..*.......**.*.
.....***..*****..

Generation = 5, Population = 22.
.....**.**....*..
**...******....*.
**..*..........*.
.....**....*..*..

Generation = 6, Population = 17.
.....*....*......
**..*.....*...**.
**..*...***...**.
.....*...........

Generation = 7, Population = 17.
.................
**..**....**..**.
**..**...**...**.
.........*.......

Generation = 8, Population = 19.
.................
**..**...***..**.
**..**...*.*..**.
.........**......

Generation = 9, Population = 19.
..........*......
**..**...*.*..**.
**..**..*..*..**.
.........**......

*** Life<ConwayCell> 17x14 ***

Generation = 0, Population = 11.
..............
..........*...
..............
..*.*.........
..............
.......*......
.......*......
.........*....
..............
..............
*.............
.....*.......*
.............*
....*.........
..............
..............
..............

Generation = 2, Population = 0.
..............
..............
..............
..............
..............
..............
..............
..............
..............
..............
..............
..............
..............
..............
..............
..............
..............

Generation = 4, Population = 0.
..............
..............
..............
..............
..............
..............
..............
..............
..............
..............
..............
..............
..............
..............
..............
..............
..............

Generation = 6, Population = 0.
..............
..............
..............
..............
..............
..............
..............
..............
..............
..............
..............
..............
..............
..............
..............
..............
..............

Generation = 8, Population = 0.
..............
..............
..............
..............
..............
..............
..............
..............
..............
..............
..............
..............
..............
..............
..............
..............
..............

Generation = 10, Population = 0.
..............
..............
..............
..............
..............
..............
..............
..............
..............
..............
..............
..............
..............
..............
..............
..............
..............

Generation = 12, Population = 0.
..............
..............
..............
..............
..............
..............
..............
..............
..............
..............
..............
..............
..............
..............
..............
..............
..............

Generation = 14, Population = 0.
..............
..............
..............
..............
..............
..............
..............
..............
..............
..............
..............
..............
..............
..............
..............
..............
..............

Generation = 16, Population = 0.
..............
..............
..............
..............
..............
..............
..............
..............
..............
..............
..............
..............
..............
..............
..............
..............
..............

Generation = 18, Population = 0.
..............
..............
..............
..............
..............
..............
..............
..............
..............
..............
..............
..............
..............
..............
..............
..............
..............

Generation = 20, Population = 0.
..............
..............
..............
..............
..............
..............
..............
..............
..............
..............
..............
..............
..............
..............
..............
..............
..............

Generation = 22, Population = 0.
..............
..............
..............
..............
..............
..............
..............
..............
..............
..............
..............
..............
..............
..............
..............
..............
..............

Generation = 24, Population = 0.
..............
..............
..............
..............
..............
..............
..............
..............
..............
..............
..............
..............
..............
..............
..............
..............
..............

Generation = 26, Population = 0.
..............
..............
..............
..............
..............
..............
..............
..............
..............
..............
..............
..............
..............
..............
..............
..............
..............

Generation = 28, Population = 0.
..............
..............
..............
..............
..............
..............
..............
..............
..............
..............
..............
..............
..............
..............
..............
..............
..............

Generation = 30, Population = 0.
..............
..............
..............
..............
..............
..............
..............
..............
..............
..............
..............
..............
..............
..............
..............
..............
..............

Generation = 32, Population = 0.
..............
..............
..............
..............
..............
..............
..............
..............
..............
..............
..............
..............
..............
..............
..............
..............
..............

Generation = 34, Population = 0.
..............
..............
..............
..............
..............
..............
..............
..............
..............
..............
..............
..............
..............
..............
..............
..............
..............

Generation = 36, Population = 0.
..............
..............
..............
..............
..............
..............
..............
..............
..............
..............
..............
..............
..............
..............
..............
..............
..............

Generation = 38, Population = 0.
..............
..............
..............
..............
..............
..............
..............
..............
..............
..............
..............
..............
..............
..............
..............
..............
..............

Generation = 40, Population = 0.
..............
..............
..............
..............
..............
..............
..............
..............
..............
..............
..............
..............
..............
..............
..............
..............
..............

Generation = 42, Population = 0.
..............
..............
..............
..............
..............
..............
..............
..............
..............
..............
..............
..............
..............
..............
..............
..............
..............

*** Life<ConwayCell> 16x15 ***

Generation = 0, Population = 17.
*..............
........*......
.............*.
......**.......
.*....*........
........*......
...*.....*.....
.*...........*.
.............*.
.*.............
...............
...............
..........*....
....*..........
...............
............*..

Generation = 1, Population = 4.
...............
...............
.......*.......
......**.......
......*........
...............
...............
...............
...............
...............
...............
...............
...............
...............
...............
...............

Generation = 2, Population = 6.
...............
...............
......**.......
......**.......
......**.......
...............
...............
...............
...............
...............
...............
...............
...............
...............
...............
...............

Generation = 3, Population = 6.
...............
...............
......**.......
.....*..*......
......**.......
...............
...............
...............
...............
...............
...............
...............
...............
...............
...............
...............

Generation = 4, Population = 6.
...............
...............
......**.......
.....*..*......
......**.......
...............
...............
...............
...............
...............
...............
...............
...............
...............
...............
...............

Generation = 5, Population = 6.
...............
...............
......**.......
.....*..*......
......**.......
...............
...............
...............
...............
...............
...............
...............
...............
...............
...............
...............

Generation = 6, Population = 6.
...............
...............
......**.......
.....*..*......
......**.......
...............
...............
...............
...............
...............
...............
...............
...............
...............
...............
...............

Generation = 7, Population = 6.
...............
...............
......**.......
.....*..*......
......**.......
...............
...............
...............
...............
...............
...............
...............
...............
...............
...............
...............

*** Life<ConwayCell> 13x2 ***

Generation = 0, Population = 4.
..
..
.*
..
..
..
*.
..
.*
..
*.
..
..

Generation = 1, Population = 0.
..
..
..
..
..
..
..
..
..
..
..
..
..

Generation = 2, Population = 0.
..
..
..
..
..
..
..
..
..
..
..
..
..

Generation = 3, Population = 0.
..
..
..
..
..
..
..
..
..
..
..
..
..

Generation = 4, Population = 0.
..
..
..
..
..
..
..
..
..
..
..
..
..

Generation = 5, Population = 0.
..
..
..
..
..
..
..
..
..
..
..
..
..

Generation = 6, Population = 0.
..
..
..
..
..
..
..
..
..
..
..
..
..

Generation = 7, Population = 0.
..
..
..
..
..
..
..
..
..
..
..
..
..

Generation = 8, Population = 0.
..
..
..
..
..
..
..
..
..
..
..
..
..

Generation = 9, Population = 0.
..
..
..
..
..
..
..
..
..
..
..
..
..

Generation = 10, Population = 0.
..
..
..
..
..
..
..
..
..
..
..
..
..

Generation = 11, Population = 0.
..
..
..
..
..
..
..
..
..
..
..
..
..

Generation = 12, Population = 0.
..
..
..
..
..
..
..
..
..
..
..
..
..

Generation = 13, Population = 0.
..
..
..
..
..
..
..
..
..
..
..
..
..

*** Life<ConwayCell> 12x17 ***

Generation = 0, Population = 10.
.......*.........
....*............
..*..............
.................
*.............*..
.................
...........*.....
.................
...*.............
.................
..........*....*.
.....*...........

Generation = 2, Population = 0.
.................
.................
.................
.................
.................
.................
.................
.................
.................
.................
.................
.................

Generation = 4, Population = 0.
.................
.................
.................
.................
.................
.................
.................
.................
.................
.................
.................
.................

Generation = 6, Population = 0.
.................
.................
.................
.................
.................
.................
.................
.................
.................
.................
.................
.................

Generation = 8, Population = 0.
.................
.................
.................
.................
.................
.................
.................
.................
.................
.................
.................
.................

Generation = 10, Population = 0.
.................
.................
.................
.................
.................
.................
.................
.................
.................
.................
.................
.................

Generation = 12, Population = 0.
.................
.................
.................
.................
.................
.................
.................
.................
.................
.................
.................
.................

Generation = 14, Population = 0.
.................
.................
.................
.................
.................
.................
.................
.................
.................
.................
.................
.................

Generation = 16, Population = 0.
.................
.................
.................
.................
.................
.................
.................
.................
.................
.................
.................
.................

Generation = 18, Population = 0.
.................
.................
.................
.................
.................
.................
.................
.................
.................
.................
.................
.................

Generation = 20, Population = 0.
.................
.................
.................
.................
.................
.................
.................
.................
.................
.................
.................
.................

Generation = 22, Population = 0.
.................
.................
.................
.................
.................
.................
.................
.................
.................
.................
.................
.................

Generation = 24, Population = 0.
.................
.................
.................
.................
.................
.................
.................
.................
.................
.................
.................
.................

*** Life<ConwayCell> 9x9 ***

Generation = 0, Population = 17.
*..*.**.*
.*.......
*........
.......*.
.*....*..
.........
...*.**..
*.*...*..
....*....

Generation = 1, Population = 9.
.........
**.......
.........
.........
.........
.....**..
.....**..
...**.*..
.........

Generation = 2, Population = 5.
.........
.........
.........
.........
.........
.....**..
.......*.
....*.*..
.........

Generation = 3, Population = 2.
.........
.........
.........
.........
.........
......*..
.......*.
.........
.........

Generation = 4, Population = 0.
.........
.........
.........
.........
.........
.........
.........
.........
.........

Generation = 5, Population = 0.
.........
.........
.........
.........
.........
.........
.........
.........
.........

Generation = 6, Population = 0.
.........
.........
.........
.........
.........
.........
.........
.........
.........

Generation = 7, Population = 0.
.........
.........
.........
.........
.........
.........
.........
.........
.........

Generation = 8, Population = 0.
.........
.........
.........
.........
.........
.........
.........
.........
.........

Generation = 9, Population = 0.
.........
.........
.........
.........
.........
.........
.........
.........
.........

Generation = 10, Population = 0.
.........
.........
.........
.........
.........
.........
.........
.........
.........

Generation = 11, Population = 0.
.........
.........
.........
.........
.........
.........
.........
.........
.........

Generation = 12, Population = 0.
.........
.........
.........
.........
.........
.........
.........
.........
.........

*** Life<ConwayCell> 9x7 ***

Generation = 0, Population = 8.
....*.*
.......
.*.....
*......
*....*.
.......
.......
..*....
......*

Generation = 2, Population = 0.
.......
.......
.......
.......
.......
.......
.......
.......
.......

Generation = 4, Population = 0.
.......
.......
.......
.......
.......
.......
.......
.......
.......

Generation = 6, Population = 0.
.......
.......
.......
.......
.......
.......
.......
.......
.......

Generation = 8, Population = 0.
.......
.......
.......
.......
.......
.......
.......
.......
.......

Generation = 10, Population = 0.
.......
.......
.......
.......
.......
.......
.......
.......
.......

Generation = 12, Population = 0.
.......
.......
.......
.......
.......
.......
.......
.......
.......

Generation = 14, Population = 0.
.......
.......
.......
.......
.......
.......
.......
.......
.......

Generation = 16, Population = 0.
.......
.......
.......
.......
.......
.......
.......
.......
.......

Generation = 18, Population = 0.
.......
.......
.......
.......
.......
.......
.......
.......
.......

Generation = 20, Population = 0.
.......
.......
.......
.......
.......
.......
.......
.......
.......

Generation = 22, Population = 0.
.......
.......
.......
.......
.......
.......
.......
.......
.......

Generation = 24, Population = 0.
.......
.......
.......
.......
.......
.......
.......
.......
.......

Generation = 26, Population = 0.
.......
.......
.......
.......
.......
.......
.......
.......
.......

Generation = 28, Population = 0.
.......
.......
.......
.......
.......
.......
.......
.......
.......

Generation = 30, Population = 0.
.......
.......
.......
.......
.......
.......
.......
.......
.......

Generation = 32, Population = 0.
.......
.......
.......
.......
.......
.......
.......
.......
.......

Generation = 34, Population = 0.
.......
.......
.......
.......
.......
.......
.......
.......
.......

Generation = 36, Population = 0.
.......
.......
.......
.......
.......
.......
.......
.......
.......

Generation = 38, Population = 0.
.......
.......
.......
.......
.......
.......
.......
.......
.......

Generation = 40, Population = 0.
.......
.......
.......
.......
.......
.......
.......
.......
.......

Generation = 42, Population = 0.
.......
.......
.......
.......
.......
.......
.......
.......
.......

Generation = 44, Population = 0.
.......
.......
.......
.......
.......
.......
.......
.......
.......

Generation = 46, Population = 0.
.......
.......
.......
.......
.......
.......
.......
.......
.......

Generation = 48, Population = 0.
.......
.......
.......
.......
.......
.......
.......
.......
.......

*** Life<ConwayCell> 2x19 ***

Generation = 0, Population = 12.
....**..*.**.*..*.*
.....*.**....*.....

Generation = 2, Population = 4.
....*....*.........
....*....*.........

Generation = 4, Population = 0.
...................
...................

Generation = 6, Population = 0.
...................
...................

Generation = 8, Population = 0.
...................
...................

Generation = 10, Population = 0.
...................
...................

Generation = 12, Population = 0.
...................
...................

Generation = 14, Population = 0.
...................
...................

Generation = 16, Population = 0.
...................
...................

Generation = 18, Population = 0.
...................
...................

Generation = 20, Population = 0.
...................
...................

Generation = 22, Population = 0.
...................
...................

Generation = 24, Population = 0.
...................
...................

Generation = 26, Population = 0.
...................
...................

Generation = 28, Population = 0.
...................
...................

Generation = 30, Population = 0.
...................
...................

Generation = 32, Population = 0.
...................
...................

Generation = 34, Population = 0.
...................
...................

Generation = 36, Population = 0.
...................
...................

*** Life<ConwayCell> 2x12 ***

Generation = 0, Population = 10.
.....*.*.***
.....*.****.

Generation = 2, Population = 0.
............
............

Generation = 4, Population = 0.
............
............

Generation = 6, Population = 0.
............
............

Generation = 8, Population = 0.
............
............

Generation = 10, Population = 0.
............
............

Generation = 12, Population = 0.
............
............

Generation = 14, Population = 0.
............
............

Generation = 16, Population = 0.
............
............

Generation = 18, Population = 0.
............
............

Generation = 20, Population = 0.
............
............

Generation = 22, Population = 0.
............
............

Generation = 24, Population = 0.
............
............

Generation = 26, Population = 0.
............
............

Generation = 28, Population = 0.
............
............

Generation = 30, Population = 0.
............
............

Generation = 32, Population = 0.
............
............

*** Life<ConwayCell> 16x17 ***

Generation = 0, Population = 3.
.................
.................
.................
.................
.................
.................
.................
.................
....*............
.................
........*........
.................
..........*......
.................
.................
.................

Generation = 2, Population = 0.
.................
.................
.................
.................
.................
.................
.................
.................
.................
.................
.................
.................
.................
.................
.................
.................

Generation = 4, Population = 0.
.................
.................
.................
.................
.................
.................
.................
.................
.................
.................
.................
.................
.................
.................
.................
.................

Generation = 6, Population = 0.
.................
.................
.................
.................
.................
.................
.................
.................
.................
.................
.................
.................
.................
.................
.................
.................

Generation = 8, Population = 0.
.................
.................
.................
.................
.................
.................
.................
.................
.................
.................
.................
.................
.................
.................
.................
.................

Generation = 10, Population = 0.
.................
.................
.................
.................
.................
.................
.................
.................
.................
.................
.................
.................
.................
.................
.................
.................

Generation = 12, Population = 0.
.................
.................
.................
.................
.................
.................
.................
.................
.................
.................
.................
.................
.................
.................
.................
.................

Generation = 14, Population = 0.
.................
.................
.................
.................
.................
.................
.................
.................
.................
.................
.................
.................
.................
.................
.................
.................

Generation = 16, Population = 0.
.................
.................
.................
.................
.................
.................
.................
.................
.................
.................
.................
.................
.................
.................
.................
.................

Generation = 18, Population = 0.
.................
.................
.................
.................
.................
.................
.................
.................
.................
.................
.................
.................
.................
.................
.................
.................

Generation = 20, Population = 0.
.................
.................
.................
.................
.................
.................
.................
.................
.................
.................
.................
.................
.................
.................
.................
.................

Generation = 22, Population = 0.
.................
.................
.................
.................
.................
.................
.................
.................
.................
.................
.................
.................
.................
.................
.................
.................

Generation = 24, Population = 0.
.................
.................
.................
.................
.................
.................
.................
.................
.................
.................
.................
.................
.................
.................
.................
.................

Generation = 26, Population = 0.
.................
.................
.................
.................
.................
.................
.................
.................
.................
.................
.................
.................
.................
.................
.................
.................

Generation = 28, Population = 0.
.................
.................
.................
.................
.................
.................
.................
.................
.................
.................
.................
.................
.................
.................
.................
.................

Generation = 30, Population = 0.
.................
.................
.................
.................
.................
.................
.................
.................
.................
.................
.................
.................
.................
.................
.................
.................

Generation = 32, Population = 0.
.................
.................
.................
.................
.................
.................
.................
.................
.................
.................
.................
.................
.................
.................
.................
.................

Generation = 34, Population = 0.
.................
.................
.................
.................
.................
.................
.................
.................
.................
.................
.................
.................
.................
.................
.................
.................

*** Life<ConwayCell> 13x14 ***

Generation = 0, Population = 10.
..............
..............
.......**.*...
.............*
..............
*.........*...
...*.........*
....*.....*...
..............
..............
..............
..............
..............

Generation = 1, Population = 0.
..............
..............
..............
..............
..............
..............
..............
..............
..............
..............
..............
..............
..............

Generation = 2, Population = 0.
..............
..............
..............
..............
..............
..............
..............
..............
..............
..............
..............
..............
..............

Generation = 3, Population = 0.
..............
..............
..............
..............
..............
..............
..............
..............
..............
..............
..............
..............
..............

Generation = 4, Population = 0.
..............
..............
..............
..............
..............
..............
..............
..............
..............
..............
..............
..............
..............

Generation = 5, Population = 0.
..............
..............
..............
..............
..............
..............
..............
..............
..............
..............
..............
..............
..............

Generation = 6, Population = 0.
..............
..............
..............
..............
..............
..............
..............
..............
..............
..............
..............
..............
..............

Generation = 7, Population = 0.
..............
..............
..............
..............
..............
..............
..............
..............
..............
..............
..............
..............
..............

Generation = 8, Population = 0.
..............
..............
..............
..............
..............
..............
..............
..............
..............
..............
..............
..............
..............

Generation = 9, Population = 0.
..............
..............
..............
..............
..............
..............
..............
..............
..............
..............
..............
..............
..............

Generation = 10, Population = 0.
..............
..............
..............
..............
..............
..............
..............
..............
..............
..............
..............
..............
..............

Generation = 11, Population = 0.
..............
..............
..............
..............
..............
..............
..............
..............
..............
..............
..............
..............
..............

Generation = 12, Population = 0.
..............
..............
..............
..............
..............
..............
..............
..............
..............
..............
..............
..............
..............

Generation = 13, Population = 0.
..............
..............
..............
..............
..............
..............
..............
..............
..............
..............
..............
..............
..............

Generation = 14, Population = 0.
..............
..............
..............
..............
..............
..............
..............
..............
..............
..............
..............
..............
..............

Generation = 15, Population = 0.
..............
..............
..............
..............
..............
..............
..............
..............
..............
..............
..............
..............
..............

Generation = 16, Population = 0.
..............
..............
..............
..............
..............
..............
..............
..............
..............
..............
..............
..............
..............

Generation = 17, Population = 0.
..............
..............
..............
..............
..............
..............
..............
..............
..............
..............
..............
..............
..............

Generation = 18, Population = 0.
..............
..............
..............
..............
..............
..............
..............
..............
..............
..............
..............
..............
..............

Generation = 19, Population = 0.
..............
..............
..............
..............
..............
..............
..............
..............
..............
..............
..............
..............
..............

Generation = 20, Population = 0.
..............
..............
..............
..............
..............
..............
..............
..............
..............
..............
..............
..............
..............

Generation = 21, Population = 0.
..............
..............
..............
..............
..............
..............
..............
..............
..............
..............
..............
..............
..............

*** Life<ConwayCell> 12x5 ***

Generation = 0, Population = 13.
..*..
.....
.*.*.
.....
*.*..
...*.
....*
.....
.....
.*.**
.*...
*.*..

Generation = 1, Population = 9.
.....
..*..
.....
.**..
.....
...*.
.....
.....
.....
..*..
**.*.
.*...

Generation = 2, Population = 10.
.....
.....
.**..
.....
..*..
.....
.....
.....
.....
.**..
**...
***..

Generation = 3, Population = 7.
.....
.....
.....
.**..
.....
.....
.....
.....
.....
***..
.....
*.*..

Generation = 4, Population = 4.
.....
.....
.....
.....
.....
.....
.....
.....
.*...
.*...
*.*..
.....

Generation = 5, Population = 4.
.....
.....
.....
.....
.....
.....
.....
.....
.....
***..
.*...
.....

Generation = 6, Population = 7.
.....
.....
.....
.....
.....
.....
.....
.....
.*...
***..
***..
.....

Generation = 7, Population = 6.
.....
.....
.....
.....
.....
.....
.....
.....
***..
.....
*.*..
.*...

Generation = 8, Population = 6.
.....
.....
.....
.....
.....
.....
.....
.*...
.*...
*.*..
.*...
.*...

Generation = 9, Population = 8.
.....
.....
.....
.....
.....
.....
.....
.....
***..
*.*..
***..
.....

Generation = 10, Population = 7.
.....
.....
.....
.....
.....
.....
.....
.*...
*.*..
...*.
*.*..
.*...

Generation = 11, Population = 8.
.....
.....
.....
.....
.....
.....
.....
.*...
.**..
..**.
.**..
.*...

Generation = 12, Population = 9.
.....
.....
.....
.....
.....
.....
.....
.**..
.*.*.
...*.
.*.*.
.**..

Generation = 13, Population = 10.
.....
.....
.....
.....
.....
.....
.....
.**..
.*.*.
...**
.*.*.
.**..

Generation = 14, Population = 12.
.....
.....
.....
.....
.....
.....
.....
.**..
.*.**
...**
.*.**
.**..

Generation = 15, Population = 10.
.....
.....
.....
.....
.....
.....
.....
.***.
.*..*
.....
.*..*
.***.

Generation = 16, Population = 11.
.....
.....
.....
.....
.....
.....
..*..
.***.
.*.*.
.....
.*.*.
.***.

Generation = 17, Population = 11.
.....
.....
.....
.....
.....
.....
.***.
.*.*.
.*.*.
.....
.*.*.
.*.*.

Generation = 18, Population = 7.
.....
.....
.....
.....
.....
..*..
.*.*.
**.**
.....
.....
.....
.....

Generation = 19, Population = 9.
.....
.....
.....
.....
.....
..*..
**.**
**.**
.....
.....
.....
.....

Generation = 20, Population = 9.
.....
.....
.....
.....
.....
.***.
*...*
**.**
.....
.....
.....
.....

*** Life<ConwayCell> 10x15 ***

Generation = 0, Population = 23.
..*...*.*......
.........*.....
............*..
..*............
**.........*...
.......*.......
..**.****...*..
...............
....*.......*..
*....*...*.*...

Generation = 2, Population = 15.
...............
...............
...............
...............
**.............
.**...*.*......
..***..........
....**..*......
....***........
...............

Generation = 4, Population = 11.
...............
...............
...............
.*.............
**.............
*..*...........
.*.............
...*..**.......
......*........
.....*.........

Generation = 6, Population = 12.
...............
...............
...............
*.*............
..*............
*.**...........
.*.............
.....*.*.......
.....*.*.......
......*........

Generation = 8, Population = 9.
...............
...............
...............
...............
.***...........
...*...........
.***...........
...............
......*........
......*........

Generation = 10, Population = 9.
...............
...............
...............
..**...........
..**...........
....*..........
..**...........
..**...........
...............
...............

Generation = 12, Population = 10.
...............
...............
...............
..**...........
..*.*..........
....**.........
..*.*..........
..**...........
...............
...............

Generation = 14, Population = 11.
...............
...............
...............
..***..........
..*..*.........
......*........
..*..*.........
..***..........
...............
...............

Generation = 16, Population = 15.
...............
...............
..***..........
..*..*.........
..*...*........
......*........
..*...*........
..*..*.........
..***..........
...............

Generation = 18, Population = 20.
...............
..***..........
.*...*.........
.**...*........
.......*.......
....*..*.......
.......*.......
.**...*........
.*...*.........
..***..........

Generation = 20, Population = 29.
..***..........
..*..*.........
.*..**.........
.**...**.......
.....*..*......
.....*..*......
.....*..*......
.**...**.......
.*..**.........
..****.........

Generation = 22, Population = 27.
.****..........
.*...*.........
*..............
.**...**.......
...*.....*.....
....*....*.....
...*.....*.....
.**..***.......
.*..***........
..*............

Generation = 24, Population = 23.
**..*..........
*...**.........
*..............
...............
.*..*...*......
........*......
.*...**.*......
.*.....**......
.*.**.*........
....*..........

Generation = 26, Population = 24.
**..**.........
**..**.........
...............
...............
...............
.......***.....
.....*.........
.**.*.*.**.....
.**...*........
..*..**........

Generation = 28, Population = 17.
**..**.........
**..**.........
...............
...............
...............
.......*.......
..*..**........
..*....*.......
...*...........
.....**........

Generation = 30, Population = 15.
**..**.........
**..**.........
...............
...............
...............
......**.......
.....***.......
.....**........
...............
...............

Generation = 32, Population = 8.
**..**.........
**..**.........
...............
...............
...............
...............
...............
...............
...............
...............

Generation = 34, Population = 8.
**..**.........
**..**.........
...............
...............
...............
...............
...............
...............
...............
...............

Generation = 36, Population = 8.
**..**.........
**..**.........
...............
...............
...............
...............
...............
...............
...............
...............

Generation = 38, Population = 8.
**..**.........
**..**.........
...............
...............
...............
...............
...............
...............
...............
...............

Generation = 40, Population = 8.
**..**.........
**..**.........
...............
...............
...............
...............
...............
...............
...............
...............

Generation = 42, Population = 8.
**..**.........
**..**.........
...............
...............
...............
...............
...............
...............
...............
...............

*** Life<ConwayCell> 6x16 ***

Generation = 0, Population = 7.
............*...
............*...
........*......*
*...............
..........*.....
.............*..

Generation = 2, Population = 0.
................
................
................
................
................
................

Generation = 4, Population = 0.
................
................
................
................
................
................

Generation = 6, Population = 0.
................
................
................
................
................
................

Generation = 8, Population = 0.
................
................
................
................
................
................

Generation = 10, Population = 0.
................
................
................
................
................
................

Generation = 12, Population = 0.
................
................
................
................
................
................

Generation = 14, Population = 0.
................
................
................
................
................
................

Generation = 16, Population = 0.
................
................
................
................
................
................

Generation = 18, Population = 0.
................
................
................
................
................
................

Generation = 20, Population = 0.
................
................
................
................
................
................

Generation = 22, Population = 0.
................
................
................
................
................
................

Generation = 24, Population = 0.
................
................
................
................
................
................

Generation = 26, Population = 0.
................
................
................
................
................
................

Generation = 28, Population = 0.
................
................
................
................
................
................

Generation = 30, Population = 0.
................
................
................
................
................
................

Generation = 32, Population = 0.
................
................
................
................
................
................

Generation = 34, Population = 0.
................
................
................
................
................
................

Generation = 36, Population = 0.
................
................
................
................
................
................

Generation = 38, Population = 0.
................
................
................
................
................
................

Generation = 40, Population = 0.
................
................
................
................
................
................

Generation = 42, Population = 0.
................
................
................
................
................
................

Generation = 44, Population = 0.
................
................
................
................
................
................

Generation = 46, Population = 0.
................
................
................
................
................
................

Generation = 48, Population = 0.
................
................
................
................
................
................

*** Life<ConwayCell> 5x5 ***

Generation = 0, Population = 4.
.....
....*
.....
*.*..
..*..

Generation = 2, Population = 0.
.....
.....
.....
.....
.....

Generation = 4, Population = 0.
.....
.....
.....
.....
.....

Generation = 6, Population = 0.
.....
.....
.....
.....
.....

Generation = 8, Population = 0.
.....
.....
.....
.....
.....

Generation = 10, Population = 0.
.....
.....
.....
.....
.....

Generation = 12, Population = 0.
.....
.....
.....
.....
.....

Generation = 14, Population = 0.
.....
.....
.....
.....
.....

Generation = 16, Population = 0.
.....
.....
.....
.....
.....

Generation = 18, Population = 0.
.....
.....
.....
.....
.....

Generation = 20, Population = 0.
.....
.....
.....
.....
.....

Generation = 22, Population = 0.
.....
.....
.....
.....
.....

Generation = 24, Population = 0.
.....
.....
.....
.....
.....

Generation = 26, Population = 0.
.....
.....
.....
.....
.....

Generation = 28, Population = 0.
.....
.....
.....
.....
.....

Generation = 30, Population = 0.
.....
.....
.....
.....
.....

Generation = 32, Population = 0.
.....
.....
.....
.....
.....

Generation = 34, Population = 0.
.....
.....
.....
.....
.....

Generation = 36, Population = 0.
.....
.....
.....
.....
.....

*** Life<ConwayCell> 4x4 ***

Generation = 0, Population = 9.
..**
****
.*..
.*.*

Generation = 2, Population = 4.
....
..**
..**
....

Generation = 4, Population = 4.
....
..**
..**
....

Generation = 6, Population = 4.
....
..**
..**
....

Generation = 8, Population = 4.
....
..**
..**
....

Generation = 10, Population = 4.
....
..**
..**
....

Generation = 12, Population = 4.
....
..**
..**
....

Generation = 14, Population = 4.
....
..**
..**
....

Generation = 16, Population = 4.
....
..**
..**
....

Generation = 18, Population = 4.
....
..**
..**
....

Generation = 20, Population = 4.
....
..**
..**
....

Generation = 22, Population = 4.
....
..**
..**
....

Generation = 24, Population = 4.
....
..**
..**
....

Generation = 26, Population = 4.
....
..**
..**
....

Generation = 28, Population = 4.
....
..**
..**
....

Generation = 30, Population = 4.
....
..**
..**
....

Generation = 32, Population = 4.
....
..**
..**
....

Generation = 34, Population = 4.
....
..**
..**
....

Generation = 36, Population = 4.
....
..**
..**
....

Generation = 38, Population = 4.
....
..**
..**
....

Generation = 40, Population = 4.
....
..**
..**
....

Generation = 42, Population = 4.
....
..**
..**
....

*** Life<ConwayCell> 11x3 ***

Generation = 0, Population = 16.
...
..*
*.*
.*.
***
.**
*..
**.
**.
..*
.*.

Generation = 1, Population = 10.
...
.*.
..*
...
*..
..*
*.*
...
*.*
*.*
...

Generation = 2, Population = 1.
...
...
...
...
...
...
.*.
...
...
...
...

Generation = 3, Population = 0.
...
...
...
...
...
...
...
...
...
...
...

Generation = 4, Population = 0.
...
...
...
...
...
...
...
...
...
...
...

*** Life<ConwayCell> 14x5 ***

Generation = 0, Population = 17.
*....
.....
*....
.**.*
*...*
.....
.***.
.*...
*....
.....
.*...
*....
..*..
.*.*.

Generation = 1, Population = 17.
.....
.....
.*...
**.*.
.*.*.
.***.
.**..
**...
.....
.....
.....
.*...
.**..
..*..

Generation = 2, Population = 19.
.....
.....
***..
**...
...**
*..*.
...*.
***..
.....
.....
.....
.**..
.**..
.**..

Generation = 3, Population = 23.
.....
.*...
*.*..
*..*.
*****
..**.
*..*.
.**..
.*...
.....
.....
.**..
*..*.
.**..

Generation = 4, Population = 20.
.....
.*...
*.*..
*...*
*...*
*....
...*.
***..
.**..
.....
.....
.**..
*..*.
.**..

Generation = 5, Population = 18.
.....
.*...
*....
*..*.
**...
.....
*.*..
*..*.
*.*..
.....
.....
.**..
*..*.
.**..

Generation = 6, Population = 17.
.....
.....
**...
*....
**...
*....
.*...
*.**.
.*...
.....
.....
.**..
*..*.
.**..

*** Life<ConwayCell> 9x2 ***

Generation = 0, Population = 1.
..
..
..
..
..
..
..
..
*.

Generation = 2, Population = 0.
..
..
..
..
..
..
..
..
..

Generation = 4, Population = 0.
..
..
..
..
..
..
..
..
..

Generation = 6, Population = 0.
..
..
..
..
..
..
..
..
..

Generation = 8, Population = 0.
..
..
..
..
..
..
..
..
..

Generation = 10, Population = 0.
..
..
..
..
..
..
..
..
..

Generation = 12, Population = 0.
..
..
..
..
..
..
..
..
..

Generation = 14, Population = 0.
..
..
..
..
..
..
..
..
..

Generation = 16, Population = 0.
..
..
..
..
..
..
..
..
..

Generation = 18, Population = 0.
..
..
..
..
..
..
..
..
..

Generation = 20, Population = 0.
..
..
..
..
..
..
..
..
..

Generation = 22, Population = 0.
..
..
..
..
..
..
..
..
..

Generation = 24, Population = 0.
..
..
..
..
..
..
..
..
..

Generation = 26, Population = 0.
..
..
..
..
..
..
..
..
..

*** Life<ConwayCell> 18x13 ***

Generation = 0, Population = 18.
.............
.............
..........*..
............*
....*..*.....
............*
...*.........
....*..*.....
..*..........
.*...........
...*.........
.........*...
.......*.....
.............
*..*...*.....
.............
...**........
.............

Generation = 2, Population = 0.
.............
.............
.............
.............
.............
.............
.............
.............
.............
.............
.............
.............
.............
.............
.............
.............
.............
.............

Generation = 4, Population = 0.
.............
.............
.............
.............
.............
.............
.............
.............
.............
.............
.............
.............
.............
.............
.............
.............
.............
.............

Generation = 6, Population = 0.
.............
.............
.............
.............
.............
.............
.............
.............
.............
.............
.............
.............
.............
.............
.............
.............
.............
.............

Generation = 8, Population = 0.
.............
.............
.............
.............
.............
.............
.............
.............
.............
.............
.............
.............
.............
.............
.............
.............
.............
.............

Generation = 10, Population = 0.
.............
.............
.............
.............
.............
.............
.............
.............
.............
.............
.............
.............
.............
.............
.............
.............
.............
.............

Generation = 12, Population = 0.
.............
.............
.............
.............
.............
.............
.............
.............
.............
.............
.............
.............
.............
.............
.............
.............
.............
.............

Generation = 14, Population = 0.
.............
.............
.............
.............
.............
.............
.............
.............
.............
.............
.............
.............
.............
.............
.............
.............
.............
.............

Generation = 16, Population = 0.
.............
.............
.............
.............
.............
.............
.............
.............
.............
.............
.............
.............
.............
.............
.............
.............
.............
.............

Generation = 18, Population = 0.
.............
.............
.............
.............
.............
.............
.............
.............
.............
.............
.............
.............
.............
.............
.............
.............
.............
.............

Generation = 20, Population = 0.
.............
.............
.............
.............
.............
.............
.............
.............
.............
.............
.............
.............
.............
.............
.............
.............
.............
.............

Generation = 22, Population = 0.
.............
.............
.............
.............
.............
.............
.............
.............
.............
.............
.............
.............
.............
.............
.............
.............
.............
.............

Generation = 24, Population = 0.
.............
.............
.............
.............
.............
.............
.............
.............
.............
.............
.............
.............
.............
.............
.............
.............
.............
.............

Generation = 26, Population = 0.
.............
.............
.............
.............
.............
.............
.............
.............
.............
.............
.............
.............
.............
.............
.............
.............
.............
.............

Generation = 28, Population = 0.
.............
.............
.............
.............
.............
.............
.............
.............
.............
.............
.............
.............
.............
.............
.............
.............
.............
.............

Generation = 30, Population = 0.
.............
.............
.............
.............
.............
.............
.............
.............
.............
.............
.............
.............
.............
.............
.............
.............
.............
.............

Generation = 32, Population = 0.
.............
.............
.............
.............
.............
.............
.............
.............
.............
.............
.............
.............
.............
.............
.............
.............
.............
.............

Generation = 34, Population = 0.
.............
.............
.............
.............
.............
.............
.............
.............
.............
.............
.............
.............
.............
.............
.............
.............
.............
.............

Generation = 36, Population = 0.
.............
.............
.............
.............
.............
.............
.............
.............
.............
.............
.............
.............
.............
.............
.............
.............
.............
.............

*** Life<ConwayCell> 9x19 ***

Generation = 0, Population = 5.
...................
...................
...................
..........*....*...
...................
........*.....*....
..........*........
...................
...................

Generation = 1, Population = 0.
...................
...................
...................
...................
...................
...................
...................
...................
...................

Generation = 2, Population = 0.
...................
...................
...................
...................
...................
...................
...................
...................
...................

Generation = 3, Population = 0.
...................
...................
...................
...................
...................
...................
...................
...................
...................

Generation = 4, Population = 0.
...................
...................
...................
...................
...................
...................
...................
...................
...................

Generation = 5, Population = 0.
...................
...................
...................
...................
...................
...................
...................
...................
...................

Generation = 6, Population = 0.
...................
...................
...................
...................
...................
...................
...................
...................
...................

Generation = 7, Population = 0.
...................
...................
...................
...................
...................
...................
...................
...................
...................

Generation = 8, Population = 0.
...................
...................
...................
...................
...................
...................
...................
...................
...................

Generation = 9, Population = 0.
...................
...................
...................
...................
...................
...................
...................
...................
...................

Generation = 10, Population = 0.
...................
...................
...................
...................
...................
...................
...................
...................
...................

Generation = 11, Population = 0.
...................
...................
...................
...................
...................
...................
...................
...................
...................

Generation = 12, Population = 0.
...................
...................
...................
...................
...................
...................
...................
...................
...................

Generation = 13, Population = 0.
...................
...................
...................
...................
...................
...................
...................
...................
...................

Generation = 14, Population = 0.
...................
...................
...................
...................
...................
...................
...................
...................
...................

*** Life<ConwayCell> 15x19 ***

Generation = 0, Population = 16.
.............*.....
.*.........*.......
...................
..*.......*.....*..
...................
...................
................*..
.............*.....
..............*.*..
.*.*.............*.
................*..
...................
...................
...*...*...........
...................

Generation = 1, Population = 4.
...................
...................
...................
...................
...................
...................
...................
...............*...
...................
...............***.
...................
...................
...................
...................
...................

Generation = 2, Population = 3.
...................
...................
...................
...................
...................
...................
...................
...................
...............*...
................*..
................*..
...................
...................
...................
...................

Generation = 3, Population = 2.
...................
...................
...................
...................
...................
...................
...................
...................
...................
...............**..
...................
...................
...................
...................
...................

*** Life<ConwayCell> 10x11 ***

Generation = 0, Population = 21.
..........*
.*...**....
......*....
..*.*.**...
..*...*...*
..**..*....
...........
.........*.
*........*.
.....*...**

Generation = 1, Population = 14.
...........
.....**....
...........
...*..**...
.**...*....
..**.......
...........
...........
........**.
.........**

Generation = 2, Population = 17.
...........
...........
.....*.*...
..*...**...
.*....**...
.***.......
...........
...........
........***
........***

Generation = 3, Population = 15.
...........
...........
.......*...
.....*..*..
.*.*..**...
.**........
..*........
.........*.
........*.*
........*.*

Generation = 4, Population = 11.
...........
...........
...........
........*..
.*....**...
.*.*.......
.**........
.........*.
........*.*
...........

Generation = 5, Population = 9.
...........
...........
...........
.......*...
..*....*...
**.........
.**........
.........*.
.........*.
...........

Generation = 6, Population = 5.
...........
...........
...........
...........
.*.........
*..........
***........
...........
...........
...........

Generation = 7, Population = 5.
...........
...........
...........
...........
...........
*.*........
**.........
.*.........
...........
...........

Generation = 8, Population = 5.
...........
...........
...........
...........
...........
*..........
*.*........
**.........
...........
...........

Generation = 9, Population = 4.
...........
...........
...........
...........
...........
.*.........
*..........
**.........
...........
...........

Generation = 10, Population = 3.
...........
...........
...........
...........
...........
...........
*..........
**.........
...........
...........

Generation = 11, Population = 4.
...........
...........
...........
...........
...........
...........
**.........
**.........
...........
...........

Generation = 12, Population = 4.
...........
...........
...........
...........
...........
...........
**.........
**.........
...........
...........

Generation = 13, Population = 4.
...........
...........
...........
...........
...........
...........
**.........
**.........
...........
...........

Generation = 14, Population = 4.
...........
...........
...........
...........
...........
...........
**.........
**.........
...........
...........

Generation = 15, Population = 4.
...........
...........
...........
...........
...........
...........
**.........
**.........
...........
...........

Generation = 16, Population = 4.
...........
...........
...........
...........
...........
...........
**.........
**.........
...........
...........

Generation = 17, Population = 4.
...........
...........
...........
...........
...........
...........
**.........
**.........
...........
...........

Generation = 18, Population = 4.
...........
...........
...........
...........
...........
...........
**.........
**.........
...........
...........

Generation = 19, Population = 4.
...........
...........
...........
...........
...........
...........
**.........
**.........
...........
...........

Generation = 20, Population = 4.
...........
...........
...........
...........
...........
...........
**.........
**.........
...........
...........

Generation = 21, Population = 4.
...........
...........
...........
...........
...........
...........
**.........
**.........
...........
...........

Generation = 22, Population = 4.
...........
...........
...........
...........
...........
...........
**.........
**.........
...........
...........

*** Life<ConwayCell> 9x15 ***

Generation = 0, Population = 7.
...*...........
...............
....**.........
...............
...............
...............
...*...........
............*..
..**...........

Generation = 2, Population = 0.
...............
...............
...............
...............
...............
...............
...............
...............
...............

Generation = 4, Population = 0.
...............
...............
...............
...............
...............
...............
...............
...............
...............

Generation = 6, Population = 0.
...............
...............
...............
...............
...............
...............
...............
...............
...............

Generation = 8, Population = 0.
...............
...............
...............
...............
...............
...............
...............
...............
...............

Generation = 10, Population = 0.
...............
...............
...............
...............
...............
...............
...............
...............
...............

Generation = 12, Population = 0.
...............
...............
...............
...............
...............
...............
...............
...............
...............

Generation = 14, Population = 0.
...............
...............
...............
...............
...............
...............
...............
...............
...............

Generation = 16, Population = 0.
...............
...............
...............
...............
...............
...............
...............
...............
...............

Generation = 18, Population = 0.
...............
...............
...............
...............
...............
...............
...............
...............
...............

Generation = 20, Population = 0.
...............
...............
...............
...............
...............
...............
...............
...............
...............

Generation = 22, Population = 0.
...............
...............
...............
...............
...............
...............
...............
...............
...............

Generation = 24, Population = 0.
...............
...............
...............
...............
...............
...............
...............
...............
...............

Generation = 26, Population = 0.
...............
...............
...............
...............
...............
...............
...............
...............
...............

Generation = 28, Population = 0.
...............
...............
...............
...............
...............
...............
...............
...............
...............

Generation = 30, Population = 0.
...............
...............
...............
...............
...............
...............
...............
...............
...............

Generation = 32, Population = 0.
...............
...............
...............
...............
...............
...............
...............
...............
...............

Generation = 34, Population = 0.
...............
...............
...............
...............
...............
...............
...............
...............
...............

Generation = 36, Population = 0.
...............
...............
...............
...............
...............
...............
...............
...............
...............

Generation = 38, Population = 0.
...............
...............
...............
...............
...............
...............
...............
...............
...............

Generation = 40, Population = 0.
...............
...............
...............
...............
...............
...............
...............
...............
...............

Generation = 42, Population = 0.
...............
...............
...............
...............
...............
...............
...............
...............
...............

Generation = 44, Population = 0.
...............
...............
...............
...............
...............
...............
...............
...............
...............
