*** Life<ConwayCell> 23x7 ***

Generation = 0, Population = 12.
.......
.......
.......
.......
.......
*......
.......
.......
..*....
....*..
...*...
..*....
..*....
.*.*...
.......
.......
...*...
.......
.......
.......
.......
*.*....
..*....

Generation = 1, Population = 10.
.......
.......
.......
.......
.......
.......
.......
.......
.......
...*...
...*...
..**...
.***...
..*....
.......
.......
.......
.......
.......
.......
.......
.*.....
.*.....

Generation = 2, Population = 8.
.......
.......
.......
.......
.......
.......
.......
.......
.......
.......
...**..
.*..*..
.*.....
.***...
.......
.......
.......
.......
.......
.......
.......
.......
.......

Generation = 3, Population = 11.
.......
.......
.......
.......
.......
.......
.......
.......
.......
.......
...**..
..***..
**.*...
.**....
..*....
.......
.......
.......
.......
.......
.......
.......
.......

Generation = 4, Population = 9.
.......
.......
.......
.......
.......
.......
.......
.......
.......
.......
..*.*..
.*.....
*...*..
*..*...
.**....
.......
.......
.......
.......
.......
.......
.......
.......

Generation = 5, Population = 9.
.......
.......
.......
.......
.......
.......
.......
.......
.......
.......
.......
.*.*...
**.....
*.**...
.**....
.......
.......
.......
.......
.......
.......
.......
.......

Generation = 6, Population = 10.
.......
.......
.......
.......
.......
.......
.......
.......
.......
.......
.......
***....
*..*...
*..*...
.***...
.......
.......
.......
.......
.......
.......
.......
.......

Generation = 7, Population = 13.
.......
.......
.......
.......
.......
.......
.......
.......
.......
.......
.*.....
***....
*..*...
*..**..
.***...
..*....
.......
.......
.......
.......
.......
.......
.......

Generation = 8, Population = 15.
.......
.......
.......
.......
.......
.......
.......
.......
.......
.......
***....
*.*....
*..**..
*...*..
.*..*..
.***...
.......
.......
.......
.......
.......
.......
.......

Generation = 9, Population = 19.
.......
.......
.......
.......
.......
.......
.......
.......
.......
.*.....
*.*....
*.*....
*..**..
**..**.
**..*..
.***...
..*....
.......
.......
.......
.......
.......
.......

Generation = 10, Population = 19.
.......
.......
.......
.......
.......
.......
.......
.......
.......
.*.....
*.*....
*.*....
*.****.
..*..*.
....**.
*..*...
.***...
.......
.......
.......
.......
.......
.......

Generation = 11, Population = 21.
.......
.......
.......
.......
.......
.......
.......
.......
.......
.*.....
*.*....
*.*.*..
..*.**.
.**...*
...***.
.*.*...
.***...
..*....
.......
.......
.......
.......
.......

Generation = 12, Population = 23.
.......
.......
.......
.......
.......
.......
.......
.......
.......
.*.....
*.**...
..*.**.
..*.**.
.**...*
.*.***.
.*.....
.*.*...
.***...
.......
.......
.......
.......
.......

Generation = 13, Population = 26.
.......
.......
.......
.......
.......
.......
.......
.......
.......
.**....
..***..
..*..*.
..*.*.*
.*....*
**.***.
**.*...
**.*...
.*.*...
..*....
.......
.......
.......
.......

Generation = 14, Population = 23.
.......
.......
.......
.......
.......
.......
.......
.......
.......
.**....
....*..
.**..*.
.***..*
**....*
...***.
...*...
...**..
**.*...
..*....
.......
.......
.......
.......

Generation = 15, Population = 23.
.......
.......
.......
.......
.......
.......
.......
.......
.......
.......
...*...
.*..**.
...*.**
**....*
..****.
..*..*.
...**..
.*.**..
.**....
.......
.......
.......
.......

Generation = 16, Population = 24.
.......
.......
.......
.......
.......
.......
.......
.......
.......
.......
....*..
..**.**
***...*
.*....*
..*****
..*..*.
.....*.
.*..*..
.***...
.......
.......
.......
.......

Generation = 17, Population = 29.
.......
.......
.......
.......
.......
.......
.......
.......
.......
.......
...***.
..*****
*..*..*
*...*.*
.****.*
..*....
....**.
.*.**..
.***...
..*....
.......
.......
.......

Generation = 18, Population = 26.
.......
.......
.......
.......
.......
.......
.......
.......
.......
....*..
..*...*
..*...*
.**...*
*...*.*
.**.*..
.**....
..*.**.
.*...*.
.*..*..
.***...
.......
.......
.......

Generation = 19, Population = 32.
.......
.......
.......
.......
.......
.......
.......
.......
.......
.......
...*.*.
..**.**
.***..*
*......
*.*..*.
....**.
..****.
.***.*.
**.**..
.***...
..*....
.......
.......

Generation = 20, Population = 30.
.......
.......
.......
.......
.......
.......
.......
.......
.......
.......
..**.**
.*...**
.*.****
*..*...
.*..**.
.**...*
.*....*
*....*.
*......
*...*..
.***...
.......
.......

Generation = 21, Population = 38.
.......
.......
.......
.......
.......
.......
.......
.......
.......
.......
..*.***
.*.....
**.*..*
**.*..*
**.***.
***...*
***..**
**.....
**.....
*.**...
.***...
..*....
.......

Generation = 22, Population = 21.
.......
.......
.......
.......
.......
.......
.......
.......
.......
.....*.
.....*.
**.**.*
.......
...*..*
...****
......*
.....**
.......
.......
*..*...
.......
.***...
.......

Generation = 23, Population = 19.
.......
.......
.......
.......
.......
.......
.......
.......
.......
.......
.....**
....**.
..****.
...*..*
...**.*
.......
.....**
.......
.......
.......
.*.*...
..*....
..*....

Generation = 24, Population = 15.
.......
.......
.......
.......
.......
.......
.......
.......
.......
.......
....***
.......
..*...*
......*
...***.
....*.*
.......
.......
.......
.......
..*....
.***...
.......

Generation = 25, Population = 18.
.......
.......
.......
.......
.......
.......
.......
.......
.......
.....*.
.....*.
......*
.......
...**.*
...**.*
...**..
.......
.......
.......
.......
.***...
.***...
..*....

Generation = 26, Population = 15.
.......
.......
.......
.......
.......
.......
.......
.......
.......
.......
.....**
.......
.....*.
...**..
..*....
...***.
.......
.......
.......
..*....
.*.*...
.......
.***...

Generation = 27, Population = 15.
.......
.......
.......
.......
.......
.......
.......
.......
.......
.......
.......
.....**
....*..
...**..
..*..*.
...**..
....*..
.......
.......
..*....
..*....
.*.*...
..*....

Generation = 28, Population = 19.
.......
.......
.......
.......
.......
.......
.......
.......
.......
.......
.......
.....*.
...**..
...***.
..*..*.
...***.
...**..
.......
.......
.......
.***...
.*.*...
..*....

Generation = 29, Population = 16.
.......
.......
.......
.......
.......
.......
.......
.......
.......
.......
.......
....*..
...*...
..*..*.
..*...*
..*..*.
...*.*.
.......
.......
..*....
.*.*...
.*.*...
..*....

Generation = 30, Population = 21.
.......
.......
.......
.......
.......
.......
.......
.......
.......
.......
.......
.......
...**..
..**...
.***.**
..*****
....*..
.......
.......
..*....
.*.*...
.*.*...
..*....

Generation = 31, Population = 16.
.......
.......
.......
.......
.......
.......
.......
.......
.......
.......
.......
.......
..***..
.*...*.
.*....*
.*....*
....*..
.......
.......
..*....
.*.*...
.*.*...
..*....

Generation = 32, Population = 20.
.......
.......
.......
.......
.......
.......
.......
.......
.......
.......
.......
...*...
..***..
.*.***.
***..**
.....*.
.......
.......
.......
..*....
.*.*...
.*.*...
..*....

Generation = 33, Population = 20.
.......
.......
.......
.......
.......
.......
.......
.......
.......
.......
.......
..***..
.....*.
*.....*
****..*
.*...**
.......
.......
.......
..*....
.*.*...
.*.*...
..*....

Generation = 34, Population = 23.
.......
.......
.......
.......
.......
.......
.......
.......
.......
.......
...*...
...**..
...***.
*.*..**
*.*...*
**...**
.......
.......
.......
..*....
.*.*...
.*.*...
..*....

Generation = 35, Population = 20.
.......
.......
.......
.......
.......
.......
.......
.......
.......
.......
...**..
..*..*.
..*...*
..*...*
*.*....
**...**
.......
.......
.......
..*....
.*.*...
.*.*...
..*....

Generation = 36, Population = 24.
.......
.......
.......
.......
.......
.......
.......
.......
.......
.......
...**..
..*.**.
.***.**
..**...
*.*..**
**.....
.......
.......
.......
..*....
.*.*...
.*.*...
..*....

Generation = 37, Population = 19.
.......
.......
.......
.......
.......
.......
.......
.......
.......
.......
...***.
.*....*
.*...**
.......
*.**...
**.....
.......
.......
.......
..*....
.*.*...
.*.*...
..*....

Generation = 38, Population = 20.
.......
.......
.......
.......
.......
.......
.......
.......
.......
....*..
....**.
..*...*
.....**
.**....
*.*....
***....
.......
.......
.......
..*....
.*.*...
.*.*...
..*....

Generation = 39, Population = 24.
.......
.......
.......
.......
.......
.......
.......
.......
.......
....**.
...***.
....*.*
.**..**
.**....
*..*...
*.*....
.*.....
.......
.......
..*....
.*.*...
.*.*...
..*....

Generation = 40, Population = 24.
.......
.......
.......
.......
.......
.......
.......
.......
.......
...*.*.
...*..*
..*...*
.***.**
*..*...
*..*...
*.*....
.*.....
.......
.......
..*....
.*.*...
.*.*...
..*....

Generation = 41, Population = 28.
.......
.......
.......
.......
.......
.......
.......
.......
.......
....*..
..*****
.*..*.*
.*.****
*..*...
*.**...
*.*....
.*.....
.......
.......
..*....
.*.*...
.*.*...
..*....

Generation = 42, Population = 23.
.......
.......
.......
.......
.......
.......
.......
.......
.......
....*..
..*...*
.*.....
**.*..*
*....*.
*.**...
*.**...
.*.....
.......
.......
..*....
.*.*...
.*.*...
..*....

*** Life<ConwayCell> 8x61 ***

Generation = 0, Population = 20.
.*.............................................*.............
.............*...............................................
.............................................................
...............*......*........*.***.......................*.
.......*.....*...*...........................................
...................................*.........................
............*.....................*.......*.............**...
.........................................*...................

Generation = 10, Population = 0.
.............................................................
.............................................................
.............................................................
.............................................................
.............................................................
.............................................................
.............................................................
.............................................................

Generation = 20, Population = 0.
.............................................................
.............................................................
.............................................................
.............................................................
.............................................................
.............................................................
.............................................................
.............................................................

*** Life<ConwayCell> 24x31 ***

Generation = 0, Population = 10.
..................*............
...............................
........*......................
.......................*.......
...............................
...............................
....................*..........
...............................
........................*......
..*..............*.............
...............................
.........*.....................
...............................
...............................
....................*..........
...............................
...............................
...............................
...............................
...............................
...............................
...............................
...............................
........*......................

Generation = 4, Population = 0.
...............................
...............................
...............................
...............................
...............................
...............................
...............................
...............................
...............................
...............................
...............................
...............................
...............................
...............................
...............................
...............................
...............................
...............................
...............................
...............................
...............................
...............................
...............................
...............................

Generation = 8, Population = 0.
...............................
...............................
...............................
...............................
...............................
...............................
...............................
...............................
...............................
...............................
...............................
...............................
...............................
...............................
...............................
...............................
...............................
...............................
...............................
...............................
...............................
...............................
...............................
...............................

Generation = 12, Population = 0.
...............................
...............................
...............................
...............................
...............................
...............................
...............................
...............................
...............................
...............................
...............................
...............................
...............................
...............................
...............................
...............................
...............................
...............................
...............................
...............................
...............................
...............................
...............................
...............................

Generation = 16, Population = 0.
...............................
...............................
...............................
...............................
...............................
...............................
...............................
...............................
...............................
...............................
...............................
...............................
...............................
...............................
...............................
...............................
...............................
...............................
...............................
...............................
...............................
...............................
...............................
...............................

Generation = 20, Population = 0.
...............................
...............................
...............................
...............................
...............................
...............................
...............................
...............................
...............................
...............................
...............................
...............................
...............................
...............................
...............................
...............................
...............................
...............................
...............................
...............................
...............................
...............................
...............................
...............................

*** Life<ConwayCell> 2x60 ***

Generation = 0, Population = 5.
..........................................................*.
......*.....*.......................................*......*

Generation = 10, Population = 0.
............................................................
............................................................

Generation = 20, Population = 0.
............................................................
............................................................

Generation = 30, Population = 0.
............................................................
............................................................

*** Life<ConwayCell> 5x34 ***

Generation = 0, Population = 11.
....*.....*......*....*...........
................................*.
.......*...........*..............
..................................
............*....*....**..........

Generation = 4, Population = 0.
..................................
..................................
..................................
..................................
..................................

Generation = 8, Population = 0.
..................................
..................................
..................................
..................................
..................................

Generation = 12, Population = 0.
..................................
..................................
..................................
..................................
..................................

Generation = 16, Population = 0.
..................................
..................................
..................................
..................................
..................................

Generation = 20, Population = 0.
..................................
..................................
..................................
..................................
..................................

Generation = 24, Population = 0.
..................................
..................................
..................................
..................................
..................................

Generation = 28, Population = 0.
..................................
..................................
..................................
..................................
..................................

Generation = 32, Population = 0.
..................................
..................................
..................................
..................................
..................................

Generation = 36, Population = 0.
..................................
..................................
..................................
..................................
..................................

*** Life<ConwayCell> 65x60 ***

Generation = 0, Population = 25.
............................................................
............................................................
............................................................
............................................................
............................................................
...................................*.........*..............
............................................................
............................................................
............................................................
......................................*.....................
............................................................
.........................................................*..
............................................................
.........................................................*..
............................................................
............................................................
............................................................
............................................................
............................................................
............................................................
............................................................
............................................................
............................................................
............................................................
............................................................
...........................................................*
..*.........................................................
.............................*..............................
............................................................
.................................*..........................
........................*...................................
......................*...............*.....................
............................................................
............................................................
............................................................
............................................................
............................................................
............................................................
............................................................
............................................................
............................................................
............................................................
............................................................
............................................................
...........*...................*............................
.............*..............................................
............................................................
...........................................................*
............................................................
..............*....*....................................*...
............................................................
............................................................
........................*...................................
............................................................
............................................................
............................................................
............................................................
............................................................
............................................................
.................................*..........................
.......................*....................................
............................................................
........*...................................................
............................................................
..*..................................*......................

Generation = 7, Population = 0.
............................................................
............................................................
............................................................
............................................................
............................................................
............................................................
............................................................
............................................................
............................................................
............................................................
............................................................
............................................................
............................................................
............................................................
............................................................
............................................................
............................................................
............................................................
............................................................
............................................................
............................................................
............................................................
............................................................
............................................................
............................................................
............................................................
............................................................
............................................................
............................................................
............................................................
............................................................
............................................................
............................................................
............................................................
............................................................
............................................................
............................................................
............................................................
............................................................
............................................................
............................................................
............................................................
............................................................
............................................................
............................................................
............................................................
............................................................
............................................................
............................................................
............................................................
............................................................
............................................................
............................................................
............................................................
............................................................
............................................................
............................................................
............................................................
............................................................
............................................................
............................................................
............................................................
............................................................
............................................................
............................................................

Generation = 14, Population = 0.
............................................................
............................................................
............................................................
............................................................
............................................................
............................................................
............................................................
............................................................
............................................................
............................................................
............................................................
............................................................
............................................................
............................................................
............................................................
............................................................
............................................................
............................................................
............................................................
............................................................
............................................................
............................................................
............................................................
............................................................
............................................................
............................................................
............................................................
............................................................
............................................................
............................................................
............................................................
............................................................
............................................................
............................................................
............................................................
............................................................
............................................................
............................................................
............................................................
............................................................
............................................................
............................................................
............................................................
............................................................
............................................................
............................................................
............................................................
............................................................
............................................................
............................................................
............................................................
............................................................
............................................................
............................................................
............................................................
............................................................
............................................................
............................................................
............................................................
............................................................
............................................................
............................................................
............................................................
............................................................
............................................................

Generation = 21, Population = 0.
............................................................
............................................................
............................................................
............................................................
............................................................
............................................................
............................................................
............................................................
............................................................
............................................................
............................................................
............................................................
............................................................
............................................................
............................................................
............................................................
............................................................
............................................................
............................................................
............................................................
............................................................
............................................................
............................................................
............................................................
............................................................
............................................................
............................................................
............................................................
............................................................
............................................................
............................................................
............................................................
............................................................
............................................................
............................................................
............................................................
............................................................
............................................................
............................................................
............................................................
............................................................
............................................................
............................................................
............................................................
............................................................
............................................................
............................................................
............................................................
............................................................
............................................................
............................................................
............................................................
............................................................
............................................................
............................................................
............................................................
............................................................
............................................................
............................................................
............................................................
............................................................
............................................................
............................................................
............................................................
............................................................

Generation = 28, Population = 0.
............................................................
............................................................
............................................................
............................................................
............................................................
............................................................
............................................................
............................................................
............................................................
............................................................
............................................................
............................................................
............................................................
............................................................
............................................................
............................................................
............................................................
............................................................
............................................................
............................................................
............................................................
............................................................
............................................................
............................................................
............................................................
............................................................
............................................................
............................................................
............................................................
............................................................
............................................................
............................................................
............................................................
............................................................
............................................................
............................................................
............................................................
............................................................
............................................................
............................................................
............................................................
............................................................
............................................................
............................................................
............................................................
............................................................
............................................................
............................................................
............................................................
............................................................
............................................................
............................................................
............................................................
............................................................
............................................................
............................................................
............................................................
............................................................
............................................................
............................................................
............................................................
............................................................
............................................................
............................................................
............................................................

*** Life<ConwayCell> 22x30 ***

Generation = 0, Population = 22.
........*..*..................
......*.......................
..................*......*....
...............*..............
..........*...................
...*.........................*
..............................
....................*.........
..............................
..................*.........*.
..............................
.........*....................
..............................
..............................
..........*....*..............
....*.........................
.*............................
..............................
.......................*......
..............................
....................*..*......
*...........*.................

Generation = 5, Population = 0.
..............................
..............................
..............................
..............................
..............................
..............................
..............................
..............................
..............................
..............................
..............................
..............................
..............................
..............................
..............................
..............................
..............................
..............................
..............................
..............................
..............................
..............................

Generation = 10, Population = 0.
..............................
..............................
..............................
..............................
..............................
..............................
..............................
..............................
..............................
..............................
..............................
..............................
..............................
..............................
..............................
..............................
..............................
..............................
..............................
..............................
..............................
..............................

Generation = 15, Population = 0.
..............................
..............................
..............................
..............................
..............................
..............................
..............................
..............................
..............................
..............................
..............................
..............................
..............................
..............................
..............................
..............................
..............................
..............................
..............................
..............................
..............................
..............................

Generation = 20, Population = 0.
..............................
..............................
..............................
..............................
..............................
..............................
..............................
..............................
..............................
..............................
..............................
..............................
..............................
..............................
..............................
..............................
..............................
..............................
..............................
..............................
..............................
..............................

Generation = 25, Population = 0.
..............................
..............................
..............................
..............................
..............................
..............................
..............................
..............................
..............................
..............................
..............................
..............................
..............................
..............................
..............................
..............................
..............................
..............................
..............................
..............................
..............................
..............................

Generation = 30, Population = 0.
..............................
..............................
..............................
..............................
..............................
..............................
..............................
..............................
..............................
..............................
..............................
..............................
..............................
..............................
..............................
..............................
..............................
..............................
..............................
..............................
..............................
..............................

Generation = 35, Population = 0.
..............................
..............................
..............................
..............................
..............................
..............................
..............................
..............................
..............................
..............................
..............................
..............................
..............................
..............................
..............................
..............................
..............................
..............................
..............................
..............................
..............................
..............................

Generation = 40, Population = 0.
..............................
..............................
..............................
..............................
..............................
..............................
..............................
..............................
..............................
..............................
..............................
..............................
..............................
..............................
..............................
..............................
..............................
..............................
..............................
..............................
..............................
..............................

Generation = 45, Population = 0.
..............................
..............................
..............................
..............................
..............................
..............................
..............................
..............................
..............................
..............................
..............................
..............................
..............................
..............................
..............................
..............................
..............................
..............................
..............................
..............................
..............................
..............................

*** Life<ConwayCell> 56x23 ***

Generation = 0, Population = 30.
.......................
.......................
...*...................
.......................
*.*..............*.....
.......................
....*..................
.......*...............
......*................
.......................
.......................
...........*...........
*......................
.......................
.......................
......................*
......*................
.......................
.......................
.......................
.......*...............
...........*...........
.........**............
.............*.........
*......................
.......................
...*...................
.......................
.......................
.....*.................
.......................
.......................
.......................
.*.....................
.......................
.....................*.
.......................
.......................
.......................
.......................
.....**..*.............
.................*.....
.......................
.......................
...........*.......*...
.......................
.......................
.......................
.......................
............*..........
.......................
...........*...........
.......................
.......................
.......................
*......................

Generation = 5, Population = 0.
.......................
.......................
.......................
.......................
.......................
.......................
.......................
.......................
.......................
.......................
.......................
.......................
.......................
.......................
.......................
.......................
.......................
.......................
.......................
.......................
.......................
.......................
.......................
.......................
.......................
.......................
.......................
.......................
.......................
.......................
.......................
.......................
.......................
.......................
.......................
.......................
.......................
.......................
.......................
.......................
.......................
.......................
.......................
.......................
.......................
.......................
.......................
.......................
.......................
.......................
.......................
.......................
.......................
.......................
.......................
.......................

Generation = 10, Population = 0.
.......................
.......................
.......................
.......................
.......................
.......................
.......................
.......................
.......................
.......................
.......................
.......................
.......................
.......................
.......................
.......................
.......................
.......................
.......................
.......................
.......................
.......................
.......................
.......................
.......................
.......................
.......................
.......................
.......................
.......................
.......................
.......................
.......................
.......................
.......................
.......................
.......................
.......................
.......................
.......................
.......................
.......................
.......................
.......................
.......................
.......................
.......................
.......................
.......................
.......................
.......................
.......................
.......................
.......................
.......................
.......................

*** Life<ConwayCell> 1x27 ***

Generation = 0, Population = 10.
.**..**...*....**..*..*...*

Generation = 2, Population = 0.
...........................

Generation = 4, Population = 0.
...........................

Generation = 6, Population = 0.
...........................

Generation = 8, Population = 0.
...........................

Generation = 10, Population = 0.
...........................

Generation = 12, Population = 0.
...........................

Generation = 14, Population = 0.
...........................

Generation = 16, Population = 0.
...........................

Generation = 18, Population = 0.
...........................

Generation = 20, Population = 0.
...........................

Generation = 22, Population = 0.
...........................

Generation = 24, Population = 0.
...........................

Generation = 26, Population = 0.
...........................

Generation = 28, Population = 0.
...........................

Generation = 30, Population = 0.
...........................

Generation = 32, Population = 0.
...........................

Generation = 34, Population = 0.
...........................

Generation = 36, Population = 0.
...........................

Generation = 38, Population = 0.
...........................

*** Life<ConwayCell> 12x5 ***

Generation = 0, Population = 18.
*.*..
*....
.....
.*...
.*...
...*.
**..*
..*.*
....*
..*..
*.**.
**...

Generation = 1, Population = 19.
.*...
.*...
.....
.....
..*..
***..
.**.*
.*..*
.....
.**..
*.**.
***..

Generation = 2, Population = 15.
.....
.....
.....
.....
..*..
*....
.....
.***.
.**..
.***.
*..*.
*.**.

Generation = 3, Population = 12.
.....
.....
.....
.....
.....
.....
.**..
.*.*.
*....
*..*.
*...*
.***.

Generation = 4, Population = 14.
.....
.....
.....
.....
.....
.....
.**..
**...
***..
**...
*...*
.***.

Generation = 5, Population = 10.
.....
.....
.....
.....
.....
.....
***..
.....
..*..
..*..
*..*.
.***.

Generation = 6, Population = 10.
.....
.....
.....
.....
.....
.*...
.*...
..*..
.....
.***.
...*.
.***.

Generation = 7, Population = 9.
.....
.....
.....
.....
.....
.....
.**..
.....
.*.*.
..**.
....*
..**.

Generation = 8, Population = 7.
.....
.....
.....
.....
.....
.....
.....
.*...
...*.
..***
....*
...*.

Generation = 9, Population = 6.
.....
.....
.....
.....
.....
.....
.....
.....
...**
..*.*
..*.*
.....

Generation = 10, Population = 4.
.....
.....
.....
.....
.....
.....
.....
.....
...**
..*.*
.....
.....

Generation = 11, Population = 3.
.....
.....
.....
.....
.....
.....
.....
.....
...**
....*
.....
.....

Generation = 12, Population = 4.
.....
.....
.....
.....
.....
.....
.....
.....
...**
...**
.....
.....

Generation = 13, Population = 4.
.....
.....
.....
.....
.....
.....
.....
.....
...**
...**
.....
.....

Generation = 14, Population = 4.
.....
.....
.....
.....
.....
.....
.....
.....
...**
...**
.....
.....

Generation = 15, Population = 4.
.....
.....
.....
.....
.....
.....
.....
.....
...**
...**
.....
.....

Generation = 16, Population = 4.
.....
.....
.....
.....
.....
.....
.....
.....
...**
...**
.....
.....

Generation = 17, Population = 4.
.....
.....
.....
.....
.....
.....
.....
.....
...**
...**
.....
.....

Generation = 18, Population = 4.
.....
.....
.....
.....
.....
.....
.....
.....
...**
...**
.....
.....

Generation = 19, Population = 4.
.....
.....
.....
.....
.....
.....
.....
.....
...**
...**
.....
.....

Generation = 20, Population = 4.
.....
.....
.....
.....
.....
.....
.....
.....
...**
...**
.....
.....

Generation = 21, Population = 4.
.....
.....
.....
.....
.....
.....
.....
.....
...**
...**
.....
.....

Generation = 22, Population = 4.
.....
.....
.....
.....
.....
.....
.....
.....
...**
...**
.....
.....

Generation = 23, Population = 4.
.....
.....
.....
.....
.....
.....
.....
.....
...**
...**
.....
.....

Generation = 24, Population = 4.
.....
.....
.....
.....
.....
.....
.....
.....
...**
...**
.....
.....

Generation = 25, Population = 4.
.....
.....
.....
.....
.....
.....
.....
.....
...**
...**
.....
.....

Generation = 26, Population = 4.
.....
.....
.....
.....
.....
.....
.....
.....
...**
...**
.....
.....

Generation = 27, Population = 4.
.....
.....
.....
.....
.....
.....
.....
.....
...**
...**
.....
.....

Generation = 28, Population = 4.
.....
.....
.....
.....
.....
.....
.....
.....
...**
...**
.....
.....

Generation = 29, Population = 4.
.....
.....
.....
.....
.....
.....
.....
.....
...**
...**
.....
.....

Generation = 30, Population = 4.
.....
.....
.....
.....
.....
.....
.....
.....
...**
...**
.....
.....

Generation = 31, Population = 4.
.....
.....
.....
.....
.....
.....
.....
.....
...**
...**
.....
.....

Generation = 32, Population = 4.
.....
.....
.....
.....
.....
.....
.....
.....
...**
...**
.....
.....

Generation = 33, Population = 4.
.....
.....
.....
.....
.....
.....
.....
.....
...**
...**
.....
.....

Generation = 34, Population = 4.
.....
.....
.....
.....
.....
.....
.....
.....
...**
...**
.....
.....

Generation = 35, Population = 4.
.....
.....
.....
.....
.....
.....
.....
.....
...**
...**
.....
.....

Generation = 36, Population = 4.
.....
.....
.....
.....
.....
.....
.....
.....
...**
...**
.....
.....

Generation = 37, Population = 4.
.....
.....
.....
.....
.....
.....
.....
.....
...**
...**
.....
.....

Generation = 38, Population = 4.
.....
.....
.....
.....
.....
.....
.....
.....
...**
...**
.....
.....

Generation = 39, Population = 4.
.....
.....
.....
.....
.....
.....
.....
.....
...**
...**
.....
.....

Generation = 40, Population = 4.
.....
.....
.....
.....
.....
.....
.....
.....
...**
...**
.....
.....

Generation = 41, Population = 4.
.....
.....
.....
.....
.....
.....
.....
.....
...**
...**
.....
.....

Generation = 42, Population = 4.
.....
.....
.....
.....
.....
.....
.....
.....
...**
...**
.....
.....

Generation = 43, Population = 4.
.....
.....
.....
.....
.....
.....
.....
.....
...**
...**
.....
.....

Generation = 44, Population = 4.
.....
.....
.....
.....
.....
.....
.....
.....
...**
...**
.....
.....

*** Life<ConwayCell> 32x3 ***

Generation = 0, Population = 21.
*.*
.*.
.*.
...
..*
...
...
...
*..
...
.*.
...
...
...
...
..*
...
.**
.*.
...
..*
...
***
*..
...
..*
*..
...
*.*
...
*..
...

Generation = 9, Population = 8.
...
***
*.*
***
...
...
...
...
...
...
...
...
...
...
...
...
...
...
...
...
...
...
...
...
...
...
...
...
...
...
...
...

*** Life<ConwayCell> 43x47 ***

Generation = 0, Population = 5.
............................................*..
...............................................
...............................................
..........*....................................
...............................................
...............................................
...............................................
...............................................
...............................................
...............................................
...............................*...............
...............................................
...............................................
...............................................
...............................................
...............................................
...............................................
...............................................
...............................................
...............................................
...............................................
...............................................
...............................................
...............................................
...............................................
...............................................
...............................................
...............................................
...............................................
...............................................
...............................................
...............................................
...............................................
...............................................
...............................................
...............................................
......................................*........
...............................................
...............................................
...............................................
...............................................
...........*...................................
...............................................

Generation = 8, Population = 0.
...............................................
...............................................
...............................................
...............................................
...............................................
...............................................
...............................................
...............................................
...............................................
...............................................
...............................................
...............................................
...............................................
...............................................
...............................................
...............................................
...............................................
...............................................
...............................................
...............................................
...............................................
...............................................
...............................................
...............................................
...............................................
...............................................
...............................................
...............................................
...............................................
...............................................
...............................................
...............................................
...............................................
...............................................
...............................................
...............................................
...............................................
...............................................
...............................................
...............................................
...............................................
...............................................
...............................................

*** Life<ConwayCell> 2x28 ***

Generation = 0, Population = 7.
.*..*........*..............
..*..*.......*.*............

Generation = 9, Population = 0.
............................
............................

*** Life<ConwayCell> 2x1 ***

Generation = 0, Population = 2.
*
*

Generation = 2, Population = 0.
.
.

Generation = 4, Population = 0.
.
.

Generation = 6, Population = 0.
.
.

Generation = 8, Population = 0.
.
.

Generation = 10, Population = 0.
.
.

Generation = 12, Population = 0.
.
.

Generation = 14, Population = 0.
.
.

Generation = 16, Population = 0.
.
.

Generation = 18, Population = 0.
.
.

Generation = 20, Population = 0.
.
.

Generation = 22, Population = 0.
.
.

Generation = 24, Population = 0.
.
.

Generation = 26, Population = 0.
.
.

Generation = 28, Population = 0.
.
.

Generation = 30, Population = 0.
.
.

Generation = 32, Population = 0.
.
.

Generation = 34, Population = 0.
.
.

Generation = 36, Population = 0.
.
.

Generation = 38, Population = 0.
.
.

*** Life<ConwayCell> 23x46 ***

Generation = 0, Population = 14.
..............................................
....*....................................*....
..............................*...............
..............................................
.............................*................
..............................................
.........*....................................
..............................................
..............................................
...............*..............................
...............................*..............
.......................................*......
..............................................
.......*.................................*....
..............................................
..................*...........................
..............................................
..............................................
..............................................
..............................................
..............................................
.............*................................
....*..............*..........................

Generation = 9, Population = 0.
..............................................
..............................................
..............................................
..............................................
..............................................
..............................................
..............................................
..............................................
..............................................
..............................................
..............................................
..............................................
..............................................
..............................................
..............................................
..............................................
..............................................
..............................................
..............................................
..............................................
..............................................
..............................................
..............................................

*** Life<ConwayCell> 10x12 ***

Generation = 0, Population = 26.
..*.*.*.*..*
.....*...**.
.....*.**...
*..*.....*..
*..*.....*..
............
.*....*.....
...........*
..*......*..
*.*..*.*....

Generation = 5, Population = 18.
......*****.
...*.***...*
..*....*.**.
...**...**..
............
............
............
............
............
............

Generation = 10, Population = 11.
............
....**....*.
....**.....*
........**.*
.........**.
............
............
............
............
............

Generation = 15, Population = 9.
............
....**......
....**......
.........*..
..........**
.........**.
............
............
............
............

*** Life<ConwayCell> 16x29 ***

Generation = 0, Population = 15.
..*...........*..............
................*......*.....
.............................
...*...............*....*....
.............................
............................*
.............................
.....*.....................*.
............*................
.........*...................
.............................
...................*.........
.............................
......*......................
.............................
........*....................

Generation = 7, Population = 0.
.............................
.............................
.............................
.............................
.............................
.............................
.............................
.............................
.............................
.............................
.............................
.............................
.............................
.............................
.............................
.............................

Generation = 14, Population = 0.
.............................
.............................
.............................
.............................
.............................
.............................
.............................
.............................
.............................
.............................
.............................
.............................
.............................
.............................
.............................
.............................

*** Life<ConwayCell> 10x28 ***

Generation = 0, Population = 22.
......*............*........
.*..*.......................
....*.......................
..*............*............
....*..**...................
.....*........*.............
............................
.......*........*...*.......
*.*.*.*.....................
........*.....*....*........

Generation = 6, Population = 0.
............................
............................
............................
............................
............................
............................
............................
............................
............................
............................

Generation = 12, Population = 0.
............................
............................
............................
............................
............................
............................
............................
............................
............................
............................

Generation = 18, Population = 0.
............................
............................
............................
............................
............................
............................
............................
............................
............................
............................

Generation = 24, Population = 0.
............................
............................
............................
............................
............................
............................
............................
............................
............................
............................

Generation = 30, Population = 0.
............................
............................
............................
............................
............................
............................
............................
............................
............................
............................

Generation = 36, Population = 0.
............................
............................
............................
............................
............................
............................
............................
............................
............................
............................

Generation = 42, Population = 0.
............................
............................
............................
............................
............................
............................
............................
............................
............................
............................

*** Life<ConwayCell> 62x48 ***

Generation = 0, Population = 29.
................................................
................................................
......................*.........................
................................................
................................................
................................................
........*.......................................
....................................*...........
................................................
...................*...........*................
...*......................................*.....
...................................*............
................................................
................................................
................................................
................................................
................................................
................................................
...........................................*....
................................................
..........................................*.....
................................................
................................................
................................................
................................................
................................................
.........................*......................
........................................*.......
................................................
................................................
................................................
................................................
.............................*..................
................................................
................................................
...................................*............
................................................
..........................................*.....
......*.........................................
................................................
................................................
................................................
................................................
..........................................*.....
..........................................*.....
..*....................*........................
................................................
................................................
................................................
...........................*....................
................*...............................
................................................
...................................*..*.........
................................................
................................................
.............*..................*...............
................................................
..........................................*.....
................................................
..................*.............................
................................................
........................*.......................

Generation = 4, Population = 0.
................................................
................................................
................................................
................................................
................................................
................................................
................................................
................................................
................................................
................................................
................................................
................................................
................................................
................................................
................................................
................................................
................................................
................................................
................................................
................................................
................................................
................................................
................................................
................................................
................................................
................................................
................................................
................................................
................................................
................................................
................................................
................................................
................................................
................................................
................................................
................................................
................................................
................................................
................................................
................................................
................................................
................................................
................................................
................................................
................................................
................................................
................................................
................................................
................................................
................................................
................................................
................................................
................................................
................................................
................................................
................................................
................................................
................................................
................................................
................................................
................................................
................................................

*** Life<ConwayCell> 37x14 ***

Generation = 0, Population = 7.
..............
........*.....
..............
..............
..............
..............
..............
.*.....*......
..............
..............
..............
..............
...*..........
..............
..............
..............
..............
....*.........
..............
..............
..............
..*...........
..............
..............
..............
..............
..............
..............
..............
..............
..............
..............
..............
.....*........
..............
..............
..............

Generation = 6, Population = 0.
..............
..............
..............
..............
..............
..............
..............
..............
..............
..............
..............
..............
..............
..............
..............
..............
..............
..............
..............
..............
..............
..............
..............
..............
..............
..............
..............
..............
..............
..............
..............
..............
..............
..............
..............
..............
..............

Generation = 12, Population = 0.
..............
..............
..............
..............
..............
..............
..............
..............
..............
..............
..............
..............
..............
..............
..............
..............
..............
..............
..............
..............
..............
..............
..............
..............
..............
..............
..............
..............
..............
..............
..............
..............
..............
..............
..............
..............
..............

*** Life<ConwayCell> 32x1 ***

Generation = 0, Population = 16.
.
*
*
*
.
.
*
.
*
.
.
.
*
.
*
.
*
.
*
*
.
.
.
*
.
.
*
*
*
*
*
.

Generation = 4, Population = 0.
.
.
.
.
.
.
.
.
.
.
.
.
.
.
.
.
.
.
.
.
.
.
.
.
.
.
.
.
.
.
.
.

Generation = 8, Population = 0.
.
.
.
.
.
.
.
.
.
.
.
.
.
.
.
.
.
.
.
.
.
.
.
.
.
.
.
.
.
.
.
.

*** Life<ConwayCell> 16x43 ***

Generation = 0, Population = 3.
...........................................
...........................................
...........................................
.........*.................................
...........................................
...........................................
..........................................*
...........................................
...........................................
...........................................
...........................................
...........................................
...........................................
...........................................
...........................................
...............*...........................

Generation = 9, Population = 0.
...........................................
...........................................
...........................................
...........................................
...........................................
...........................................
...........................................
...........................................
...........................................
...........................................
...........................................
...........................................
...........................................
...........................................
...........................................
...........................................

Generation = 18, Population = 0.
...........................................
...........................................
...........................................
...........................................
...........................................
...........................................
...........................................
...........................................
...........................................
...........................................
...........................................
...........................................
...........................................
...........................................
...........................................
...........................................

*** Life<ConwayCell> 40x16 ***

Generation = 0, Population = 1.
................
................
................
................
................
................
................
................
................
................
................
................
................
................
................
................
................
................
................
................
................
................
................
................
................
................
................
................
................
................
................
................
................
................
................
............*...
................
................
................
................

Generation = 8, Population = 0.
................
................
................
................
................
................
................
................
................
................
................
................
................
................
................
................
................
................
................
................
................
................
................
................
................
................
................
................
................
................
................
................
................
................
................
................
................
................
................
................

Generation = 16, Population = 0.
................
................
................
................
................
................
................
................
................
................
................
................
................
................
................
................
................
................
................
................
................
................
................
................
................
................
................
................
................
................
................
................
................
................
................
................
................
................
................
................

Generation = 24, Population = 0.
................
................
................
................
................
................
................
................
................
................
................
................
................
................
................
................
................
................
................
................
................
................
................
................
................
................
................
................
................
................
................
................
................
................
................
................
................
................
................
................
